%YAML 1.1
%TAG !u! tag:unity3d.com,2011:
--- !u!1 &392852957896605704
GameObject:
  m_ObjectHideFlags: 0
  m_CorrespondingSourceObject: {fileID: 0}
  m_PrefabInstance: {fileID: 0}
  m_PrefabAsset: {fileID: 0}
  serializedVersion: 6
  m_Component:
  - component: {fileID: 5216699199634394870}
  - component: {fileID: 3233335100743262086}
  - component: {fileID: 1613050015137058500}
  - component: {fileID: 4841410301403578554}
  - component: {fileID: 8839933751949544807}
  - component: {fileID: 4816232860619085893}
  - component: {fileID: 3026788114405036131}
  m_Layer: 0
  m_Name: Line 1
  m_TagString: Untagged
  m_Icon: {fileID: 0}
  m_NavMeshLayer: 0
  m_StaticEditorFlags: 0
  m_IsActive: 1
--- !u!4 &5216699199634394870
Transform:
  m_ObjectHideFlags: 0
  m_CorrespondingSourceObject: {fileID: 0}
  m_PrefabInstance: {fileID: 0}
  m_PrefabAsset: {fileID: 0}
  m_GameObject: {fileID: 392852957896605704}
  m_LocalRotation: {x: 0, y: 0, z: 0.38268343, w: 0.92387956}
  m_LocalPosition: {x: 0, y: 0.62, z: 0}
  m_LocalScale: {x: 1.3, y: 0.361108, z: 1}
  m_Children: []
  m_Father: {fileID: 680143259434305933}
  m_RootOrder: 0
  m_LocalEulerAnglesHint: {x: 0, y: 0, z: 45}
--- !u!114 &3233335100743262086
MonoBehaviour:
  m_ObjectHideFlags: 0
  m_CorrespondingSourceObject: {fileID: 0}
  m_PrefabInstance: {fileID: 0}
  m_PrefabAsset: {fileID: 0}
  m_GameObject: {fileID: 392852957896605704}
  m_Enabled: 1
  m_EditorHideFlags: 0
  m_Script: {fileID: 11500000, guid: e70f079e2a6bf364e8185b765fbe61c0, type: 3}
  m_Name: 
  m_EditorClassIdentifier: 
  settings:
    hideHandles: 0
    newPointDistance: 2
    showCurve: 1
    showCurveMode: 1
    showCurveOption: 0
    sections: 20
    showPointMenu: 1
    showTangents: 0
    tangentsSize: 0.7
    tangentsColor: {r: 1, g: 1, b: 1, a: 1}
    tangentsPerSection: 1
    controlType: 1
    vRay: 0
    lineColor: {r: 1, g: 0, b: 0, a: 1}
    restrictGizmoz: 
    showPointControlType: 1
    showPointPosition: 1
    showHandles: 1
    handlesType: 0
    handlesSettings:
      RemoveX: 0
      RemoveY: 0
      RemoveZ: 1
      RemoveXZ: 1
      RemoveXY: 0
      RemoveYZ: 1
      AxisScale: 1
      PlanesScale: 1
      Alpha: 1
    showLabels: 1
    labelColor: {r: 1, g: 1, b: 1, a: 1}
    showPositions: 0
    labelColorSelected: {r: 0, g: 1, b: 0, a: 1}
    showSpheres: 1
    sphereRadius: 0.1
    sphereColor: {r: 1, g: 0, b: 0, a: 1}
    showPointControlPositions: 1
    showControlHandles: 1
    controlHandlesType: 0
    controlHandlesSettings:
      RemoveX: 0
      RemoveY: 0
      RemoveZ: 1
      RemoveXZ: 1
      RemoveXY: 0
      RemoveYZ: 1
      AxisScale: 0.7
      PlanesScale: 0.7
      Alpha: 0.7
    controlHandlesColor: {r: 0, g: 1, b: 1, a: 1}
    showControlLabels: 1
    showControlPositions: 0
    labelControlColor: {r: 1, g: 0.92156863, b: 0.015686275, a: 1}
    showTransformField: 0
    existing: 1
  mode2D: 1
  closed: 1
  points:
  - controlType: 1
    positionLocal: {x: 0, y: 2, z: 0}
    controlFirstLocal: {x: -1, y: 0, z: -0}
    controlSecondLocal: {x: 1, y: -0, z: 0}
    pointTransform: {fileID: 0}
    curve: {fileID: 3233335100743262086}
    fieldsValues: []
  - controlType: 1
    positionLocal: {x: 2, y: 0, z: 0}
    controlFirstLocal: {x: 0, y: 1, z: -0}
    controlSecondLocal: {x: -0, y: -1, z: 0}
    pointTransform: {fileID: 0}
    curve: {fileID: 3233335100743262086}
    fieldsValues: []
  - controlType: 1
    positionLocal: {x: 0, y: -2, z: 0}
    controlFirstLocal: {x: 1, y: 0, z: -0}
    controlSecondLocal: {x: -1, y: -0, z: 0}
    pointTransform: {fileID: 0}
    curve: {fileID: 3233335100743262086}
    fieldsValues: []
  - controlType: 1
    positionLocal: {x: -2, y: 0, z: 0}
    controlFirstLocal: {x: 0, y: -1, z: -0}
    controlSecondLocal: {x: -0, y: 1, z: 0}
    pointTransform: {fileID: 0}
    curve: {fileID: 3233335100743262086}
    fieldsValues: []
  pointsComponents: []
  pointsGameObjects: []
  fields: []
  snapType: 0
  snapAxis: 1
  snapDistance: 10
  snapLayerMask:
    serializedVersion: 2
    m_Bits: 4294967295
  snapTriggerInteraction: 0
  snapToBackFaces: 0
  snapMonitoring: 0
  eventMode: 0
  pointsMode: 0
  forceChangedEventMode: 0
--- !u!120 &1613050015137058500
LineRenderer:
  m_ObjectHideFlags: 0
  m_CorrespondingSourceObject: {fileID: 0}
  m_PrefabInstance: {fileID: 0}
  m_PrefabAsset: {fileID: 0}
  m_GameObject: {fileID: 392852957896605704}
  m_Enabled: 1
  m_CastShadows: 1
  m_ReceiveShadows: 1
  m_DynamicOccludee: 1
  m_MotionVectors: 0
  m_LightProbeUsage: 0
  m_ReflectionProbeUsage: 0
  m_RayTracingMode: 0
  m_RenderingLayerMask: 1
  m_RendererPriority: 0
  m_Materials:
  - {fileID: 2100000, guid: 6cb3650f50dfad54c8b05afcedfa398d, type: 2}
  m_StaticBatchInfo:
    firstSubMesh: 0
    subMeshCount: 0
  m_StaticBatchRoot: {fileID: 0}
  m_ProbeAnchor: {fileID: 0}
  m_LightProbeVolumeOverride: {fileID: 0}
  m_ScaleInLightmap: 1
  m_ReceiveGI: 1
  m_PreserveUVs: 0
  m_IgnoreNormalsForChartDetection: 0
  m_ImportantGI: 0
  m_StitchLightmapSeams: 1
  m_SelectedEditorRenderState: 3
  m_MinimumChartSize: 4
  m_AutoUVMaxDistance: 0.5
  m_AutoUVMaxAngle: 89
  m_LightmapParameters: {fileID: 0}
  m_SortingLayerID: 0
  m_SortingLayer: 0
  m_SortingOrder: 0
  m_Positions:
  - {x: -0.51068383, y: 1.1306839, z: 0}
  - {x: -0.41795233, y: 1.221732, z: 0}
  - {x: -0.32377952, y: 1.3109304, z: 0}
  - {x: -0.22842652, y: 1.3981314, z: 0}
  - {x: -0.13215427, y: 1.4831874, z: 0}
  - {x: -0.035223812, y: 1.5659511, z: 0}
  - {x: 0.062103838, y: 1.6462749, z: 0}
  - {x: 0.15956765, y: 1.7240112, z: 0}
  - {x: 0.25690663, y: 1.7990124, z: 0}
  - {x: 0.35385972, y: 1.8711312, z: 0}
  - {x: 0.45016596, y: 1.9402199, z: 0}
  - {x: 0.5455643, y: 2.006131, z: 0}
  - {x: 0.6397937, y: 2.0687168, z: 0}
  - {x: 0.7325932, y: 2.12783, z: 0}
  - {x: 0.8237017, y: 2.1833231, z: 0}
  - {x: 0.91285825, y: 2.2350483, z: 0}
  - {x: 0.9998018, y: 2.2828584, z: 0}
  - {x: 1.0842713, y: 2.3266058, z: 0}
  - {x: 1.1660058, y: 2.3661425, z: 0}
  - {x: 1.2447443, y: 2.4013216, z: 0}
  - {x: 1.3202257, y: 2.4319954, z: 0}
  - {x: 1.3921891, y: 2.458016, z: 0}
  - {x: 1.4603734, y: 2.4792361, z: 0}
  - {x: 1.5245174, y: 2.4955084, z: 0}
  - {x: 1.5843605, y: 2.5066853, z: 0}
  - {x: 1.6396413, y: 2.5126188, z: 0}
  - {x: 1.690099, y: 2.513162, z: 0}
  - {x: 1.7354724, y: 2.5081668, z: 0}
  - {x: 1.7755008, y: 2.497486, z: 0}
  - {x: 1.8099228, y: 2.480972, z: 0}
  - {x: 1.8384776, y: 2.4584775, z: 0}
  - {x: 1.8609723, y: 2.4299226, z: 0}
  - {x: 1.8774862, y: 2.3955007, z: 0}
  - {x: 1.8881669, y: 2.3554723, z: 0}
  - {x: 1.893162, y: 2.310099, z: 0}
  - {x: 1.892619, y: 2.2596412, z: 0}
  - {x: 1.8866853, y: 2.2043602, z: 0}
  - {x: 1.8755085, y: 2.1445174, z: 0}
  - {x: 1.8592364, y: 2.0803733, z: 0}
  - {x: 1.8380162, y: 2.012189, z: 0}
  - {x: 1.8119954, y: 1.9402256, z: 0}
  - {x: 1.7813218, y: 1.8647442, z: 0}
  - {x: 1.7461427, y: 1.7860057, z: 0}
  - {x: 1.7066058, y: 1.7042712, z: 0}
  - {x: 1.6628586, y: 1.6198016, z: 0}
  - {x: 1.6150485, y: 1.5328581, z: 0}
  - {x: 1.5633231, y: 1.4437016, z: 0}
  - {x: 1.5078301, y: 1.3525931, z: 0}
  - {x: 1.4487169, y: 1.2597936, z: 0}
  - {x: 1.3861309, y: 1.1655642, z: 0}
  - {x: 1.3202199, y: 1.0701659, z: 0}
  - {x: 1.2511312, y: 0.97385967, z: 0}
  - {x: 1.1790124, y: 0.8769066, z: 0}
  - {x: 1.1040112, y: 0.7795676, z: 0}
  - {x: 1.0262749, y: 0.6821038, z: 0}
  - {x: 0.9459511, y: 0.58477616, z: 0}
  - {x: 0.86318743, y: 0.48784572, z: 0}
  - {x: 0.7781313, y: 0.39157346, z: 0}
  - {x: 0.6909303, y: 0.29622045, z: 0}
  - {x: 0.60173196, y: 0.20204768, z: 0}
  - {x: 0.51068383, y: 0.10931617, z: 0}
  - {x: 0.41795233, y: 0.018268025, z: 0}
  - {x: 0.32377952, y: -0.07093031, z: 0}
  - {x: 0.22842652, y: -0.1581313, z: 0}
  - {x: 0.13215427, y: -0.24318741, z: 0}
  - {x: 0.035223812, y: -0.3259511, z: 0}
  - {x: -0.062103838, y: -0.40627486, z: 0}
  - {x: -0.15956765, y: -0.48401114, z: 0}
  - {x: -0.25690663, y: -0.5590124, z: 0}
  - {x: -0.35385972, y: -0.6311312, z: 0}
  - {x: -0.45016596, y: -0.7002198, z: 0}
  - {x: -0.5455643, y: -0.76613086, z: 0}
  - {x: -0.6397937, y: -0.8287168, z: 0}
  - {x: -0.7325932, y: -0.88783, z: 0}
  - {x: -0.8237017, y: -0.9433231, z: 0}
  - {x: -0.91285825, y: -0.9950484, z: 0}
  - {x: -0.9998018, y: -1.0428585, z: 0}
  - {x: -1.0842713, y: -1.0866057, z: 0}
  - {x: -1.1660058, y: -1.1261426, z: 0}
  - {x: -1.2447443, y: -1.1613216, z: 0}
  - {x: -1.3202257, y: -1.1919953, z: 0}
  - {x: -1.3921891, y: -1.2180159, z: 0}
  - {x: -1.4603734, y: -1.2392362, z: 0}
  - {x: -1.5245174, y: -1.2555084, z: 0}
  - {x: -1.5843605, y: -1.2666851, z: 0}
  - {x: -1.6396413, y: -1.2726188, z: 0}
  - {x: -1.690099, y: -1.2731619, z: 0}
  - {x: -1.7354724, y: -1.2681668, z: 0}
  - {x: -1.7755008, y: -1.2574861, z: 0}
  - {x: -1.8099228, y: -1.2409722, z: 0}
  - {x: -1.8384776, y: -1.2184775, z: 0}
  - {x: -1.8609723, y: -1.1899227, z: 0}
  - {x: -1.8774862, y: -1.1555007, z: 0}
  - {x: -1.8881669, y: -1.1154723, z: 0}
  - {x: -1.893162, y: -1.0700989, z: 0}
  - {x: -1.892619, y: -1.0196412, z: 0}
  - {x: -1.8866853, y: -0.96436036, z: 0}
  - {x: -1.8755085, y: -0.90451735, z: 0}
  - {x: -1.8592364, y: -0.8403732, z: 0}
  - {x: -1.8380162, y: -0.77218896, z: 0}
  - {x: -1.8119954, y: -0.70022565, z: 0}
  - {x: -1.7813218, y: -0.62474424, z: 0}
  - {x: -1.7461427, y: -0.5460058, z: 0}
  - {x: -1.7066058, y: -0.46427125, z: 0}
  - {x: -1.6628586, y: -0.3798017, z: 0}
  - {x: -1.6150485, y: -0.29285812, z: 0}
  - {x: -1.5633231, y: -0.2037016, z: 0}
  - {x: -1.5078301, y: -0.11259308, z: 0}
  - {x: -1.4487169, y: -0.01979361, z: 0}
  - {x: -1.3861309, y: 0.07443579, z: 0}
  - {x: -1.3202199, y: 0.16983412, z: 0}
  - {x: -1.2511312, y: 0.26614034, z: 0}
  - {x: -1.1790124, y: 0.36309344, z: 0}
  - {x: -1.1040112, y: 0.4604324, z: 0}
  - {x: -1.0262749, y: 0.55789626, z: 0}
  - {x: -0.9459511, y: 0.6552239, z: 0}
  - {x: -0.86318743, y: 0.75215435, z: 0}
  - {x: -0.7781313, y: 0.8484266, z: 0}
  - {x: -0.6909303, y: 0.9437796, z: 0}
  - {x: -0.60173196, y: 1.0379524, z: 0}
  - {x: -0.51068383, y: 1.1306839, z: 0}
  m_Parameters:
    serializedVersion: 3
    widthMultiplier: 1
    widthCurve:
      serializedVersion: 2
      m_Curve:
      - serializedVersion: 3
        time: 0
        value: 0.05
        inSlope: 0
        outSlope: 0
        tangentMode: 0
        weightedMode: 0
        inWeight: 0.33333334
        outWeight: 0.33333334
      m_PreInfinity: 2
      m_PostInfinity: 2
      m_RotationOrder: 4
    colorGradient:
      serializedVersion: 2
      key0: {r: 1, g: 1, b: 1, a: 1}
      key1: {r: 1, g: 1, b: 1, a: 1}
      key2: {r: 0, g: 0, b: 0, a: 0}
      key3: {r: 0, g: 0, b: 0, a: 0}
      key4: {r: 0, g: 0, b: 0, a: 0}
      key5: {r: 0, g: 0, b: 0, a: 0}
      key6: {r: 0, g: 0, b: 0, a: 0}
      key7: {r: 0, g: 0, b: 0, a: 0}
      ctime0: 0
      ctime1: 65535
      ctime2: 0
      ctime3: 0
      ctime4: 0
      ctime5: 0
      ctime6: 0
      ctime7: 0
      atime0: 0
      atime1: 65535
      atime2: 0
      atime3: 0
      atime4: 0
      atime5: 0
      atime6: 0
      atime7: 0
      m_Mode: 0
      m_NumColorKeys: 2
      m_NumAlphaKeys: 2
    numCornerVertices: 0
    numCapVertices: 0
    alignment: 0
    textureMode: 0
    shadowBias: 0.5
    generateLightingData: 0
  m_UseWorldSpace: 1
  m_Loop: 0
--- !u!114 &4841410301403578554
MonoBehaviour:
  m_ObjectHideFlags: 0
  m_CorrespondingSourceObject: {fileID: 0}
  m_PrefabInstance: {fileID: 0}
  m_PrefabAsset: {fileID: 0}
  m_GameObject: {fileID: 392852957896605704}
  m_Enabled: 1
  m_EditorHideFlags: 0
  m_Script: {fileID: 11500000, guid: b6d20671ad38ded4fa2362df353b9a31, type: 3}
  m_Name: 
  m_EditorClassIdentifier: 
  showHandles: 1
  hidden: 0
  parent: {fileID: 0}
  ccName: 
  fields: 1
  mathType: 0
  sectionParts: 30
  optimizeStraightLines: 0
  tolerance: 0.2
  usePositionToCalculateTangents: 0
  updateMode: 0
  rendererForUpdateCheck: {fileID: 0}
  mathChangedEvent:
    m_PersistentCalls:
      m_Calls: []
  spheresScale: 1
  spheresColor: {r: 1, g: 1, b: 1, a: 1}
  spheresCount: 100
--- !u!114 &8839933751949544807
MonoBehaviour:
  m_ObjectHideFlags: 0
  m_CorrespondingSourceObject: {fileID: 0}
  m_PrefabInstance: {fileID: 0}
  m_PrefabAsset: {fileID: 0}
  m_GameObject: {fileID: 392852957896605704}
  m_Enabled: 1
  m_EditorHideFlags: 0
  m_Script: {fileID: 11500000, guid: 8a69af748a081a14dbc7aa333bece5af, type: 3}
  m_Name: 
  m_EditorClassIdentifier: 
  showHandles: 1
  hidden: 0
  parent: {fileID: 4841410301403578554}
  ccName: 
  splitMode: 0
  partsTotal: 30
  partsPerSection: 30
  doNotOptimizeStraightLines: 0
  useLocal: 0
  spheresScale: 1
  spheresColor: {r: 1, g: 1, b: 1, a: 1}
  spheresCount: 100
  updateAtStart: 0
--- !u!114 &4816232860619085893
MonoBehaviour:
  m_ObjectHideFlags: 0
  m_CorrespondingSourceObject: {fileID: 0}
  m_PrefabInstance: {fileID: 0}
  m_PrefabAsset: {fileID: 0}
  m_GameObject: {fileID: 392852957896605704}
  m_Enabled: 1
  m_EditorHideFlags: 0
  m_Script: {fileID: 11500000, guid: 924df4c68ad59e943b47b75f2323f73a, type: 3}
  m_Name: 
  m_EditorClassIdentifier: 
  showHandles: 1
  hidden: 0
  parent: {fileID: 4841410301403578554}
  ccName: 
  distance: 10.984893
  handlesScale: 1
  handlesColor: {r: 1, g: 1, b: 1, a: 1}
--- !u!114 &3026788114405036131
MonoBehaviour:
  m_ObjectHideFlags: 0
  m_CorrespondingSourceObject: {fileID: 0}
  m_PrefabInstance: {fileID: 0}
  m_PrefabAsset: {fileID: 0}
  m_GameObject: {fileID: 392852957896605704}
  m_Enabled: 1
  m_EditorHideFlags: 0
  m_Script: {fileID: 11500000, guid: 9d916ef28168e544d9dc5bb790f67ba0, type: 3}
  m_Name: 
  m_EditorClassIdentifier: 
  showHandles: 1
  hidden: 0
  parent: {fileID: 4816232860619085893}
  ccName: 
  objectToManipulate: {fileID: 680143258287402543}
--- !u!1 &680143257872012470
GameObject:
  m_ObjectHideFlags: 0
  m_CorrespondingSourceObject: {fileID: 0}
  m_PrefabInstance: {fileID: 0}
  m_PrefabAsset: {fileID: 0}
  serializedVersion: 6
  m_Component:
  - component: {fileID: 680143257872012471}
  m_Layer: 0
  m_Name: Points
  m_TagString: Untagged
  m_Icon: {fileID: 0}
  m_NavMeshLayer: 0
  m_StaticEditorFlags: 0
  m_IsActive: 1
--- !u!4 &680143257872012471
Transform:
  m_ObjectHideFlags: 0
  m_CorrespondingSourceObject: {fileID: 0}
  m_PrefabInstance: {fileID: 0}
  m_PrefabAsset: {fileID: 0}
  m_GameObject: {fileID: 680143257872012470}
  m_LocalRotation: {x: 0, y: 0, z: 0, w: 1}
  m_LocalPosition: {x: 0, y: 0, z: -9}
  m_LocalScale: {x: 1, y: 1, z: 1}
  m_Children:
  - {fileID: 680143258287402543}
  - {fileID: 680143258409308635}
  - {fileID: 2653363368105457425}
  - {fileID: 810299983553858386}
  m_Father: {fileID: 680143259275780000}
  m_RootOrder: 2
  m_LocalEulerAnglesHint: {x: 0, y: 0, z: 0}
--- !u!1 &680143258287402542
GameObject:
  m_ObjectHideFlags: 0
  m_CorrespondingSourceObject: {fileID: 0}
  m_PrefabInstance: {fileID: 0}
  m_PrefabAsset: {fileID: 0}
  serializedVersion: 6
  m_Component:
  - component: {fileID: 680143258287402543}
  - component: {fileID: 680143258287402540}
  m_Layer: 0
  m_Name: p1
  m_TagString: Untagged
  m_Icon: {fileID: 0}
  m_NavMeshLayer: 0
  m_StaticEditorFlags: 0
  m_IsActive: 1
--- !u!4 &680143258287402543
Transform:
  m_ObjectHideFlags: 0
  m_CorrespondingSourceObject: {fileID: 0}
  m_PrefabInstance: {fileID: 0}
  m_PrefabAsset: {fileID: 0}
  m_GameObject: {fileID: 680143258287402542}
  m_LocalRotation: {x: -0, y: -0, z: 0.91235983, w: -0.4093893}
  m_LocalPosition: {x: -0.66652745, y: 0.9695434, z: 9}
  m_LocalScale: {x: 0.7, y: 0.7, z: 1}
  m_Children: []
  m_Father: {fileID: 680143257872012471}
  m_RootOrder: 0
  m_LocalEulerAnglesHint: {x: 0, y: 0, z: 228.333}
--- !u!212 &680143258287402540
SpriteRenderer:
  m_ObjectHideFlags: 0
  m_CorrespondingSourceObject: {fileID: 0}
  m_PrefabInstance: {fileID: 0}
  m_PrefabAsset: {fileID: 0}
  m_GameObject: {fileID: 680143258287402542}
  m_Enabled: 1
  m_CastShadows: 0
  m_ReceiveShadows: 0
  m_DynamicOccludee: 1
  m_MotionVectors: 1
  m_LightProbeUsage: 1
  m_ReflectionProbeUsage: 1
  m_RayTracingMode: 0
  m_RenderingLayerMask: 1
  m_RendererPriority: 0
  m_Materials:
  - {fileID: 10754, guid: 0000000000000000f000000000000000, type: 0}
  m_StaticBatchInfo:
    firstSubMesh: 0
    subMeshCount: 0
  m_StaticBatchRoot: {fileID: 0}
  m_ProbeAnchor: {fileID: 0}
  m_LightProbeVolumeOverride: {fileID: 0}
  m_ScaleInLightmap: 1
  m_ReceiveGI: 1
  m_PreserveUVs: 0
  m_IgnoreNormalsForChartDetection: 0
  m_ImportantGI: 0
  m_StitchLightmapSeams: 1
  m_SelectedEditorRenderState: 0
  m_MinimumChartSize: 4
  m_AutoUVMaxDistance: 0.5
  m_AutoUVMaxAngle: 89
  m_LightmapParameters: {fileID: 0}
  m_SortingLayerID: 0
  m_SortingLayer: 0
  m_SortingOrder: 0
  m_Sprite: {fileID: 21300000, guid: 5b137d068d8b3884ebab022523259502, type: 3}
  m_Color: {r: 1, g: 1, b: 1, a: 1}
  m_FlipX: 0
  m_FlipY: 0
  m_DrawMode: 0
  m_Size: {x: 0.78, y: 0.78}
  m_AdaptiveModeThreshold: 0.5
  m_SpriteTileMode: 0
  m_WasSpriteAssigned: 1
  m_MaskInteraction: 0
  m_SpriteSortPoint: 0
--- !u!1 &680143258409308634
GameObject:
  m_ObjectHideFlags: 0
  m_CorrespondingSourceObject: {fileID: 0}
  m_PrefabInstance: {fileID: 0}
  m_PrefabAsset: {fileID: 0}
  serializedVersion: 6
  m_Component:
  - component: {fileID: 680143258409308635}
  - component: {fileID: 680143258409308632}
  m_Layer: 0
  m_Name: p2
  m_TagString: Untagged
  m_Icon: {fileID: 0}
  m_NavMeshLayer: 0
  m_StaticEditorFlags: 0
  m_IsActive: 1
--- !u!4 &680143258409308635
Transform:
  m_ObjectHideFlags: 0
  m_CorrespondingSourceObject: {fileID: 0}
  m_PrefabInstance: {fileID: 0}
  m_PrefabAsset: {fileID: 0}
  m_GameObject: {fileID: 680143258409308634}
  m_LocalRotation: {x: -0, y: -0, z: 0.9232206, w: 0.3842705}
  m_LocalPosition: {x: -1.0028875, y: 3.2570016, z: 9}
  m_LocalScale: {x: 0.7, y: 0.7, z: 1}
  m_Children: []
  m_Father: {fileID: 680143257872012471}
  m_RootOrder: 1
  m_LocalEulerAnglesHint: {x: 0, y: 0, z: 134.80301}
--- !u!212 &680143258409308632
SpriteRenderer:
  m_ObjectHideFlags: 0
  m_CorrespondingSourceObject: {fileID: 0}
  m_PrefabInstance: {fileID: 0}
  m_PrefabAsset: {fileID: 0}
  m_GameObject: {fileID: 680143258409308634}
  m_Enabled: 1
  m_CastShadows: 0
  m_ReceiveShadows: 0
  m_DynamicOccludee: 1
  m_MotionVectors: 1
  m_LightProbeUsage: 1
  m_ReflectionProbeUsage: 1
  m_RayTracingMode: 0
  m_RenderingLayerMask: 1
  m_RendererPriority: 0
  m_Materials:
  - {fileID: 10754, guid: 0000000000000000f000000000000000, type: 0}
  m_StaticBatchInfo:
    firstSubMesh: 0
    subMeshCount: 0
  m_StaticBatchRoot: {fileID: 0}
  m_ProbeAnchor: {fileID: 0}
  m_LightProbeVolumeOverride: {fileID: 0}
  m_ScaleInLightmap: 1
  m_ReceiveGI: 1
  m_PreserveUVs: 0
  m_IgnoreNormalsForChartDetection: 0
  m_ImportantGI: 0
  m_StitchLightmapSeams: 1
  m_SelectedEditorRenderState: 0
  m_MinimumChartSize: 4
  m_AutoUVMaxDistance: 0.5
  m_AutoUVMaxAngle: 89
  m_LightmapParameters: {fileID: 0}
  m_SortingLayerID: 0
  m_SortingLayer: 0
  m_SortingOrder: 0
  m_Sprite: {fileID: 21300000, guid: 5b137d068d8b3884ebab022523259502, type: 3}
  m_Color: {r: 1, g: 1, b: 1, a: 1}
  m_FlipX: 0
  m_FlipY: 0
  m_DrawMode: 0
  m_Size: {x: 0.78, y: 0.78}
  m_AdaptiveModeThreshold: 0.5
  m_SpriteTileMode: 0
  m_WasSpriteAssigned: 1
  m_MaskInteraction: 0
  m_SpriteSortPoint: 0
--- !u!1 &680143258498801339
GameObject:
  m_ObjectHideFlags: 0
  m_CorrespondingSourceObject: {fileID: 0}
  m_PrefabInstance: {fileID: 0}
  m_PrefabAsset: {fileID: 0}
  serializedVersion: 6
  m_Component:
  - component: {fileID: 680143258498801336}
  - component: {fileID: 680143258498801337}
  m_Layer: 0
  m_Name: 'Demo '
  m_TagString: Untagged
  m_Icon: {fileID: 0}
  m_NavMeshLayer: 0
  m_StaticEditorFlags: 0
  m_IsActive: 0
--- !u!4 &680143258498801336
Transform:
  m_ObjectHideFlags: 0
  m_CorrespondingSourceObject: {fileID: 0}
  m_PrefabInstance: {fileID: 0}
  m_PrefabAsset: {fileID: 0}
  m_GameObject: {fileID: 680143258498801339}
  m_LocalRotation: {x: -0, y: -0, z: -0, w: 1}
  m_LocalPosition: {x: 0, y: 0, z: 0}
  m_LocalScale: {x: 2, y: 2, z: 1}
  m_Children: []
  m_Father: {fileID: 680143259275780000}
  m_RootOrder: 0
  m_LocalEulerAnglesHint: {x: 0, y: 0, z: 0}
--- !u!212 &680143258498801337
SpriteRenderer:
  m_ObjectHideFlags: 0
  m_CorrespondingSourceObject: {fileID: 0}
  m_PrefabInstance: {fileID: 0}
  m_PrefabAsset: {fileID: 0}
  m_GameObject: {fileID: 680143258498801339}
  m_Enabled: 1
  m_CastShadows: 0
  m_ReceiveShadows: 0
  m_DynamicOccludee: 1
  m_MotionVectors: 1
  m_LightProbeUsage: 1
  m_ReflectionProbeUsage: 1
  m_RayTracingMode: 0
  m_RenderingLayerMask: 1
  m_RendererPriority: 0
  m_Materials:
  - {fileID: 10754, guid: 0000000000000000f000000000000000, type: 0}
  m_StaticBatchInfo:
    firstSubMesh: 0
    subMeshCount: 0
  m_StaticBatchRoot: {fileID: 0}
  m_ProbeAnchor: {fileID: 0}
  m_LightProbeVolumeOverride: {fileID: 0}
  m_ScaleInLightmap: 1
  m_ReceiveGI: 1
  m_PreserveUVs: 0
  m_IgnoreNormalsForChartDetection: 0
  m_ImportantGI: 0
  m_StitchLightmapSeams: 1
  m_SelectedEditorRenderState: 0
  m_MinimumChartSize: 4
  m_AutoUVMaxDistance: 0.5
  m_AutoUVMaxAngle: 89
  m_LightmapParameters: {fileID: 0}
  m_SortingLayerID: 0
  m_SortingLayer: 0
  m_SortingOrder: 0
  m_Sprite: {fileID: 21300000, guid: 5de1b47e261a5814794109cf5f19285b, type: 3}
  m_Color: {r: 1, g: 1, b: 1, a: 0.23921569}
  m_FlipX: 0
  m_FlipY: 0
  m_DrawMode: 0
  m_Size: {x: 2.8, y: 4.97}
  m_AdaptiveModeThreshold: 0.5
  m_SpriteTileMode: 0
  m_WasSpriteAssigned: 0
  m_MaskInteraction: 0
  m_SpriteSortPoint: 0
--- !u!1 &680143259186840347
GameObject:
  m_ObjectHideFlags: 0
  m_CorrespondingSourceObject: {fileID: 0}
  m_PrefabInstance: {fileID: 0}
  m_PrefabAsset: {fileID: 0}
  serializedVersion: 6
  m_Component:
  - component: {fileID: 680143259186840344}
  - component: {fileID: 680143259186840345}
  m_Layer: 0
  m_Name: BG
  m_TagString: Untagged
  m_Icon: {fileID: 0}
  m_NavMeshLayer: 0
  m_StaticEditorFlags: 0
  m_IsActive: 1
--- !u!4 &680143259186840344
Transform:
  m_ObjectHideFlags: 0
  m_CorrespondingSourceObject: {fileID: 0}
  m_PrefabInstance: {fileID: 0}
  m_PrefabAsset: {fileID: 0}
  m_GameObject: {fileID: 680143259186840347}
  m_LocalRotation: {x: 0, y: 0, z: 0, w: 1}
  m_LocalPosition: {x: 0, y: 0, z: 1.21}
  m_LocalScale: {x: 1, y: 1, z: 1}
  m_Children: []
  m_Father: {fileID: 680143259275780000}
  m_RootOrder: 1
  m_LocalEulerAnglesHint: {x: 0, y: 0, z: 0}
--- !u!212 &680143259186840345
SpriteRenderer:
  m_ObjectHideFlags: 0
  m_CorrespondingSourceObject: {fileID: 0}
  m_PrefabInstance: {fileID: 0}
  m_PrefabAsset: {fileID: 0}
  m_GameObject: {fileID: 680143259186840347}
  m_Enabled: 1
  m_CastShadows: 0
  m_ReceiveShadows: 0
  m_DynamicOccludee: 1
  m_MotionVectors: 1
  m_LightProbeUsage: 1
  m_ReflectionProbeUsage: 1
  m_RayTracingMode: 0
  m_RenderingLayerMask: 1
  m_RendererPriority: 0
  m_Materials:
  - {fileID: 10754, guid: 0000000000000000f000000000000000, type: 0}
  m_StaticBatchInfo:
    firstSubMesh: 0
    subMeshCount: 0
  m_StaticBatchRoot: {fileID: 0}
  m_ProbeAnchor: {fileID: 0}
  m_LightProbeVolumeOverride: {fileID: 0}
  m_ScaleInLightmap: 1
  m_ReceiveGI: 1
  m_PreserveUVs: 0
  m_IgnoreNormalsForChartDetection: 0
  m_ImportantGI: 0
  m_StitchLightmapSeams: 1
  m_SelectedEditorRenderState: 0
  m_MinimumChartSize: 4
  m_AutoUVMaxDistance: 0.5
  m_AutoUVMaxAngle: 89
  m_LightmapParameters: {fileID: 0}
  m_SortingLayerID: 0
  m_SortingLayer: 0
  m_SortingOrder: 0
  m_Sprite: {fileID: 21300000, guid: 2a38b70c5d2a3964cb904a8f58a4f7a8, type: 3}
  m_Color: {r: 1, g: 1, b: 1, a: 1}
  m_FlipX: 0
  m_FlipY: 0
  m_DrawMode: 0
  m_Size: {x: 10.75, y: 19.15}
  m_AdaptiveModeThreshold: 0.5
  m_SpriteTileMode: 0
  m_WasSpriteAssigned: 1
  m_MaskInteraction: 0
  m_SpriteSortPoint: 0
--- !u!1 &680143259275780003
GameObject:
  m_ObjectHideFlags: 0
  m_CorrespondingSourceObject: {fileID: 0}
  m_PrefabInstance: {fileID: 0}
  m_PrefabAsset: {fileID: 0}
  serializedVersion: 6
  m_Component:
  - component: {fileID: 680143259275780000}
  - component: {fileID: 680143259275780001}
  m_Layer: 0
  m_Name: Level 16-1
  m_TagString: Untagged
  m_Icon: {fileID: 0}
  m_NavMeshLayer: 0
  m_StaticEditorFlags: 0
  m_IsActive: 1
--- !u!4 &680143259275780000
Transform:
  m_ObjectHideFlags: 0
  m_CorrespondingSourceObject: {fileID: 0}
  m_PrefabInstance: {fileID: 0}
  m_PrefabAsset: {fileID: 0}
  m_GameObject: {fileID: 680143259275780003}
  m_LocalRotation: {x: 0, y: 0, z: 0, w: 1}
  m_LocalPosition: {x: 0, y: 0, z: 0}
  m_LocalScale: {x: 1, y: 1, z: 1}
  m_Children:
  - {fileID: 680143258498801336}
  - {fileID: 680143259186840344}
  - {fileID: 680143257872012471}
  - {fileID: 680143259434305933}
  - {fileID: 8676589636590099695}
  m_Father: {fileID: 0}
  m_RootOrder: 0
  m_LocalEulerAnglesHint: {x: 0, y: 0, z: 0}
--- !u!114 &680143259275780001
MonoBehaviour:
  m_ObjectHideFlags: 0
  m_CorrespondingSourceObject: {fileID: 0}
  m_PrefabInstance: {fileID: 0}
  m_PrefabAsset: {fileID: 0}
  m_GameObject: {fileID: 680143259275780003}
  m_Enabled: 1
  m_EditorHideFlags: 0
  m_Script: {fileID: 11500000, guid: 6156accd7665ce7429d6dabd7e6d4830, type: 3}
  m_Name: 
  m_EditorClassIdentifier: 
  isLevelHint: 0
  trsPointGroup: {fileID: 680143257872012471}
  trsLineGroup: {fileID: 680143259434305933}
  trsMoveLine: {fileID: 8676589636590099695}
  idWorld: 0
  id: 16
  musicID: 3
  isAllCircle: 1
  isAllEllipse: 0
  isAllSquareNormal: 0
  isAllTriangleNormal: 0
  isAllRhombus: 0
  isAllLines: 0
  isCustom: 0
  moveTime: 2.5
  numberStep: 8
  timeWin: 3
  turns:
  - beatsID: 03000000
    lineNumber: 02000000
  - beatsID: 02000000
    lineNumber: 04000000
  - beatsID: 0100000004000000
    lineNumber: 05000000
  - beatsID: 
    lineNumber: 02000000
  lineBallsAuto: 0100000003000000
  lineBallsAutoForHint: 
  linesRotate: []
  ballsActive: []
  lineHightLights: []
--- !u!1 &680143259434305932
GameObject:
  m_ObjectHideFlags: 0
  m_CorrespondingSourceObject: {fileID: 0}
  m_PrefabInstance: {fileID: 0}
  m_PrefabAsset: {fileID: 0}
  serializedVersion: 6
  m_Component:
  - component: {fileID: 680143259434305933}
  m_Layer: 0
  m_Name: Lines
  m_TagString: Untagged
  m_Icon: {fileID: 0}
  m_NavMeshLayer: 0
  m_StaticEditorFlags: 0
  m_IsActive: 1
--- !u!4 &680143259434305933
Transform:
  m_ObjectHideFlags: 0
  m_CorrespondingSourceObject: {fileID: 0}
  m_PrefabInstance: {fileID: 0}
  m_PrefabAsset: {fileID: 0}
  m_GameObject: {fileID: 680143259434305932}
  m_LocalRotation: {x: 0, y: 0, z: 0, w: 1}
  m_LocalPosition: {x: 0, y: 0, z: 0}
  m_LocalScale: {x: 1, y: 1, z: 1}
  m_Children:
  - {fileID: 5216699199634394870}
  - {fileID: 2502981771543861341}
  - {fileID: 1811502231689107632}
  - {fileID: 642890760290994625}
  m_Father: {fileID: 680143259275780000}
  m_RootOrder: 3
  m_LocalEulerAnglesHint: {x: 0, y: 0, z: 0}
--- !u!1 &746548019007053973
GameObject:
  m_ObjectHideFlags: 0
  m_CorrespondingSourceObject: {fileID: 0}
  m_PrefabInstance: {fileID: 0}
  m_PrefabAsset: {fileID: 0}
  serializedVersion: 6
  m_Component:
  - component: {fileID: 8676589636590099695}
  m_Layer: 0
  m_Name: MoveLines
  m_TagString: Untagged
  m_Icon: {fileID: 0}
  m_NavMeshLayer: 0
  m_StaticEditorFlags: 0
  m_IsActive: 1
--- !u!4 &8676589636590099695
Transform:
  m_ObjectHideFlags: 0
  m_CorrespondingSourceObject: {fileID: 0}
  m_PrefabInstance: {fileID: 0}
  m_PrefabAsset: {fileID: 0}
  m_GameObject: {fileID: 746548019007053973}
  m_LocalRotation: {x: 0, y: 0, z: 0, w: 1}
  m_LocalPosition: {x: 0, y: 0, z: 0}
  m_LocalScale: {x: 1, y: 1, z: 1}
  m_Children: []
  m_Father: {fileID: 680143259275780000}
  m_RootOrder: 4
  m_LocalEulerAnglesHint: {x: 0, y: 0, z: 0}
--- !u!1 &1050397247967328077
GameObject:
  m_ObjectHideFlags: 0
  m_CorrespondingSourceObject: {fileID: 0}
  m_PrefabInstance: {fileID: 0}
  m_PrefabAsset: {fileID: 0}
  serializedVersion: 6
  m_Component:
  - component: {fileID: 642890760290994625}
  - component: {fileID: 1481690807319658928}
  - component: {fileID: 3839602682837949861}
  - component: {fileID: 1232411207966308708}
  - component: {fileID: 3579404904214509102}
  - component: {fileID: 8979288497374662718}
  - component: {fileID: 3527232805702087162}
  m_Layer: 0
  m_Name: Line 2 (1)
  m_TagString: Untagged
  m_Icon: {fileID: 0}
  m_NavMeshLayer: 0
  m_StaticEditorFlags: 0
  m_IsActive: 1
--- !u!4 &642890760290994625
Transform:
  m_ObjectHideFlags: 0
  m_CorrespondingSourceObject: {fileID: 0}
  m_PrefabInstance: {fileID: 0}
  m_PrefabAsset: {fileID: 0}
  m_GameObject: {fileID: 1050397247967328077}
  m_LocalRotation: {x: -0, y: -0, z: -0.47654283, w: 0.8791512}
  m_LocalPosition: {x: 0, y: 0.62, z: 0}
  m_LocalScale: {x: 1.9976548, y: 0.43732, z: 1}
  m_Children: []
  m_Father: {fileID: 680143259434305933}
  m_RootOrder: 3
  m_LocalEulerAnglesHint: {x: 0, y: 0, z: -56.920002}
--- !u!114 &1481690807319658928
MonoBehaviour:
  m_ObjectHideFlags: 0
  m_CorrespondingSourceObject: {fileID: 0}
  m_PrefabInstance: {fileID: 0}
  m_PrefabAsset: {fileID: 0}
  m_GameObject: {fileID: 1050397247967328077}
  m_Enabled: 1
  m_EditorHideFlags: 0
  m_Script: {fileID: 11500000, guid: e70f079e2a6bf364e8185b765fbe61c0, type: 3}
  m_Name: 
  m_EditorClassIdentifier: 
  settings:
    hideHandles: 0
    newPointDistance: 2
    showCurve: 1
    showCurveMode: 1
    showCurveOption: 0
    sections: 20
    showPointMenu: 1
    showTangents: 0
    tangentsSize: 0.7
    tangentsColor: {r: 1, g: 1, b: 1, a: 1}
    tangentsPerSection: 1
    controlType: 1
    vRay: 0
    lineColor: {r: 1, g: 0, b: 0, a: 1}
    restrictGizmoz: 
    showPointControlType: 1
    showPointPosition: 1
    showHandles: 1
    handlesType: 0
    handlesSettings:
      RemoveX: 0
      RemoveY: 0
      RemoveZ: 1
      RemoveXZ: 1
      RemoveXY: 0
      RemoveYZ: 1
      AxisScale: 1
      PlanesScale: 1
      Alpha: 1
    showLabels: 1
    labelColor: {r: 1, g: 1, b: 1, a: 1}
    showPositions: 0
    labelColorSelected: {r: 0, g: 1, b: 0, a: 1}
    showSpheres: 1
    sphereRadius: 0.1
    sphereColor: {r: 1, g: 0, b: 0, a: 1}
    showPointControlPositions: 1
    showControlHandles: 1
    controlHandlesType: 0
    controlHandlesSettings:
      RemoveX: 0
      RemoveY: 0
      RemoveZ: 1
      RemoveXZ: 1
      RemoveXY: 0
      RemoveYZ: 1
      AxisScale: 0.7
      PlanesScale: 0.7
      Alpha: 0.7
    controlHandlesColor: {r: 0, g: 1, b: 1, a: 1}
    showControlLabels: 1
    showControlPositions: 0
    labelControlColor: {r: 1, g: 0.92156863, b: 0.015686275, a: 1}
    showTransformField: 0
    existing: 1
  mode2D: 1
  closed: 1
  points:
  - controlType: 1
    positionLocal: {x: 0, y: 2, z: 0}
    controlFirstLocal: {x: -1, y: 0, z: -0}
    controlSecondLocal: {x: 1, y: -0, z: 0}
    pointTransform: {fileID: 0}
    curve: {fileID: 1481690807319658928}
    fieldsValues: []
  - controlType: 1
    positionLocal: {x: 2, y: 0, z: 0}
    controlFirstLocal: {x: 0, y: 1, z: -0}
    controlSecondLocal: {x: -0, y: -1, z: 0}
    pointTransform: {fileID: 0}
    curve: {fileID: 1481690807319658928}
    fieldsValues: []
  - controlType: 1
    positionLocal: {x: 0, y: -2, z: 0}
    controlFirstLocal: {x: 1, y: 0, z: -0}
    controlSecondLocal: {x: -1, y: -0, z: 0}
    pointTransform: {fileID: 0}
    curve: {fileID: 1481690807319658928}
    fieldsValues: []
  - controlType: 1
    positionLocal: {x: -2, y: 0, z: 0}
    controlFirstLocal: {x: 0, y: -1, z: -0}
    controlSecondLocal: {x: -0, y: 1, z: 0}
    pointTransform: {fileID: 0}
    curve: {fileID: 1481690807319658928}
    fieldsValues: []
  pointsComponents: []
  pointsGameObjects: []
  fields: []
  snapType: 0
  snapAxis: 1
  snapDistance: 10
  snapLayerMask:
    serializedVersion: 2
    m_Bits: 4294967295
  snapTriggerInteraction: 0
  snapToBackFaces: 0
  snapMonitoring: 0
  eventMode: 0
  pointsMode: 0
  forceChangedEventMode: 0
--- !u!120 &3839602682837949861
LineRenderer:
  m_ObjectHideFlags: 0
  m_CorrespondingSourceObject: {fileID: 0}
  m_PrefabInstance: {fileID: 0}
  m_PrefabAsset: {fileID: 0}
  m_GameObject: {fileID: 1050397247967328077}
  m_Enabled: 1
  m_CastShadows: 1
  m_ReceiveShadows: 1
  m_DynamicOccludee: 1
  m_MotionVectors: 0
  m_LightProbeUsage: 0
  m_ReflectionProbeUsage: 0
  m_RayTracingMode: 0
  m_RenderingLayerMask: 1
  m_RendererPriority: 0
  m_Materials:
  - {fileID: 2100000, guid: 6cb3650f50dfad54c8b05afcedfa398d, type: 2}
  m_StaticBatchInfo:
    firstSubMesh: 0
    subMeshCount: 0
  m_StaticBatchRoot: {fileID: 0}
  m_ProbeAnchor: {fileID: 0}
  m_LightProbeVolumeOverride: {fileID: 0}
  m_ScaleInLightmap: 1
  m_ReceiveGI: 1
  m_PreserveUVs: 0
  m_IgnoreNormalsForChartDetection: 0
  m_ImportantGI: 0
  m_StitchLightmapSeams: 1
  m_SelectedEditorRenderState: 3
  m_MinimumChartSize: 4
  m_AutoUVMaxDistance: 0.5
  m_AutoUVMaxAngle: 89
  m_LightmapParameters: {fileID: 0}
  m_SortingLayerID: 0
  m_SortingLayer: 0
  m_SortingOrder: 0
  m_Positions:
  - {x: 0.73286647, y: 1.0973907, z: 0}
  - {x: 0.84065294, y: 0.92928106, z: 0}
  - {x: 0.9458357, y: 0.7600052, z: 0}
  - {x: 1.0482538, y: 0.589988, z: 0}
  - {x: 1.1477464, y: 0.41965455, z: 0}
  - {x: 1.2441527, y: 0.24942984, z: 0}
  - {x: 1.3373117, y: 0.07973888, z: 0}
  - {x: 1.4270626, y: -0.08899333, z: 0}
  - {x: 1.5132445, y: -0.2563418, z: 0}
  - {x: 1.5956967, y: -0.42188144, z: 0}
  - {x: 1.674258, y: -0.5851873, z: 0}
  - {x: 1.7487677, y: -0.7458344, z: 0}
  - {x: 1.8190651, y: -0.9033977, z: 0}
  - {x: 1.8849891, y: -1.0574522, z: 0}
  - {x: 1.946379, y: -1.2075728, z: 0}
  - {x: 2.0030737, y: -1.3533347, z: 0}
  - {x: 2.0549126, y: -1.4943126, z: 0}
  - {x: 2.1017344, y: -1.6300818, z: 0}
  - {x: 2.1433787, y: -1.7602171, z: 0}
  - {x: 2.1796846, y: -1.8842934, z: 0}
  - {x: 2.210491, y: -2.001886, z: 0}
  - {x: 2.235637, y: -2.1125696, z: 0}
  - {x: 2.254962, y: -2.2159193, z: 0}
  - {x: 2.2683048, y: -2.31151, z: 0}
  - {x: 2.2755048, y: -2.398917, z: 0}
  - {x: 2.276401, y: -2.477715, z: 0}
  - {x: 2.2708325, y: -2.547479, z: 0}
  - {x: 2.2586386, y: -2.607784, z: 0}
  - {x: 2.2396584, y: -2.658205, z: 0}
  - {x: 2.2137308, y: -2.6983173, z: 0}
  - {x: 2.1806953, y: -2.7276955, z: 0}
  - {x: 2.1404715, y: -2.7460387, z: 0}
  - {x: 2.0933022, y: -2.753542, z: 0}
  - {x: 2.0395117, y: -2.7505238, z: 0}
  - {x: 1.9794233, y: -2.7373037, z: 0}
  - {x: 1.9133607, y: -2.7142, z: 0}
  - {x: 1.8416479, y: -2.6815321, z: 0}
  - {x: 1.7646084, y: -2.6396189, z: 0}
  - {x: 1.682566, y: -2.588779, z: 0}
  - {x: 1.5958446, y: -2.5293317, z: 0}
  - {x: 1.5047677, y: -2.4615955, z: 0}
  - {x: 1.409659, y: -2.3858895, z: 0}
  - {x: 1.3108425, y: -2.3025327, z: 0}
  - {x: 1.2086416, y: -2.2118442, z: 0}
  - {x: 1.1033804, y: -2.1141424, z: 0}
  - {x: 0.9953823, y: -2.0097468, z: 0}
  - {x: 0.8849712, y: -1.8989758, z: 0}
  - {x: 0.7724707, y: -1.7821488, z: 0}
  - {x: 0.6582047, y: -1.6595844, z: 0}
  - {x: 0.5424968, y: -1.5316017, z: 0}
  - {x: 0.42567074, y: -1.3985194, z: 0}
  - {x: 0.3080503, y: -1.2606567, z: 0}
  - {x: 0.18995918, y: -1.1183324, z: 0}
  - {x: 0.07172113, y: -0.97186536, z: 0}
  - {x: -0.046340138, y: -0.82157457, z: 0}
  - {x: -0.1639009, y: -0.66777897, z: 0}
  - {x: -0.2806374, y: -0.51079744, z: 0}
  - {x: -0.39622596, y: -0.3509489, z: 0}
  - {x: -0.5103428, y: -0.1885523, z: 0}
  - {x: -0.6226642, y: -0.023926567, z: 0}
  - {x: -0.73286647, y: 0.14260939, z: 0}
  - {x: -0.84065294, y: 0.31071898, z: 0}
  - {x: -0.9458357, y: 0.47999486, z: 0}
  - {x: -1.0482538, y: 0.650012, z: 0}
  - {x: -1.1477464, y: 0.82034546, z: 0}
  - {x: -1.2441527, y: 0.9905702, z: 0}
  - {x: -1.3373117, y: 1.1602612, z: 0}
  - {x: -1.4270626, y: 1.3289933, z: 0}
  - {x: -1.5132445, y: 1.4963417, z: 0}
  - {x: -1.5956967, y: 1.6618814, z: 0}
  - {x: -1.674258, y: 1.8251873, z: 0}
  - {x: -1.7487677, y: 1.9858344, z: 0}
  - {x: -1.8190651, y: 2.1433976, z: 0}
  - {x: -1.8849891, y: 2.2974522, z: 0}
  - {x: -1.946379, y: 2.4475727, z: 0}
  - {x: -2.0030737, y: 2.5933347, z: 0}
  - {x: -2.0549126, y: 2.7343125, z: 0}
  - {x: -2.1017344, y: 2.8700817, z: 0}
  - {x: -2.1433787, y: 3.000217, z: 0}
  - {x: -2.1796846, y: 3.1242933, z: 0}
  - {x: -2.210491, y: 3.241886, z: 0}
  - {x: -2.235637, y: 3.3525696, z: 0}
  - {x: -2.254962, y: 3.4559193, z: 0}
  - {x: -2.2683048, y: 3.55151, z: 0}
  - {x: -2.2755048, y: 3.638917, z: 0}
  - {x: -2.276401, y: 3.717715, z: 0}
  - {x: -2.2708325, y: 3.787479, z: 0}
  - {x: -2.2586386, y: 3.847784, z: 0}
  - {x: -2.2396584, y: 3.8982053, z: 0}
  - {x: -2.2137308, y: 3.9383175, z: 0}
  - {x: -2.1806953, y: 3.9676957, z: 0}
  - {x: -2.1404715, y: 3.986039, z: 0}
  - {x: -2.0933022, y: 3.993542, z: 0}
  - {x: -2.0395117, y: 3.990524, z: 0}
  - {x: -1.9794233, y: 3.9773037, z: 0}
  - {x: -1.9133607, y: 3.9542003, z: 0}
  - {x: -1.8416479, y: 3.9215324, z: 0}
  - {x: -1.7646084, y: 3.879619, z: 0}
  - {x: -1.682566, y: 3.828779, z: 0}
  - {x: -1.5958446, y: 3.7693317, z: 0}
  - {x: -1.5047677, y: 3.7015955, z: 0}
  - {x: -1.409659, y: 3.6258895, z: 0}
  - {x: -1.3108425, y: 3.5425327, z: 0}
  - {x: -1.2086416, y: 3.4518442, z: 0}
  - {x: -1.1033804, y: 3.3541424, z: 0}
  - {x: -0.9953823, y: 3.2497468, z: 0}
  - {x: -0.8849712, y: 3.1389759, z: 0}
  - {x: -0.7724707, y: 3.0221488, z: 0}
  - {x: -0.6582047, y: 2.8995845, z: 0}
  - {x: -0.5424968, y: 2.7716017, z: 0}
  - {x: -0.42567074, y: 2.6385195, z: 0}
  - {x: -0.3080503, y: 2.5006568, z: 0}
  - {x: -0.18995918, y: 2.3583324, z: 0}
  - {x: -0.07172113, y: 2.2118654, z: 0}
  - {x: 0.046340138, y: 2.0615747, z: 0}
  - {x: 0.1639009, y: 1.907779, z: 0}
  - {x: 0.2806374, y: 1.7507975, z: 0}
  - {x: 0.39622596, y: 1.5909489, z: 0}
  - {x: 0.5103428, y: 1.4285524, z: 0}
  - {x: 0.6226642, y: 1.2639266, z: 0}
  - {x: 0.73286647, y: 1.0973907, z: 0}
  m_Parameters:
    serializedVersion: 3
    widthMultiplier: 1
    widthCurve:
      serializedVersion: 2
      m_Curve:
      - serializedVersion: 3
        time: 0
        value: 0.05
        inSlope: 0
        outSlope: 0
        tangentMode: 0
        weightedMode: 0
        inWeight: 0.33333334
        outWeight: 0.33333334
      m_PreInfinity: 2
      m_PostInfinity: 2
      m_RotationOrder: 4
    colorGradient:
      serializedVersion: 2
      key0: {r: 1, g: 1, b: 1, a: 1}
      key1: {r: 1, g: 1, b: 1, a: 1}
      key2: {r: 0, g: 0, b: 0, a: 0}
      key3: {r: 0, g: 0, b: 0, a: 0}
      key4: {r: 0, g: 0, b: 0, a: 0}
      key5: {r: 0, g: 0, b: 0, a: 0}
      key6: {r: 0, g: 0, b: 0, a: 0}
      key7: {r: 0, g: 0, b: 0, a: 0}
      ctime0: 0
      ctime1: 65535
      ctime2: 0
      ctime3: 0
      ctime4: 0
      ctime5: 0
      ctime6: 0
      ctime7: 0
      atime0: 0
      atime1: 65535
      atime2: 0
      atime3: 0
      atime4: 0
      atime5: 0
      atime6: 0
      atime7: 0
      m_Mode: 0
      m_NumColorKeys: 2
      m_NumAlphaKeys: 2
    numCornerVertices: 0
    numCapVertices: 0
    alignment: 0
    textureMode: 0
    shadowBias: 0.5
    generateLightingData: 0
  m_UseWorldSpace: 1
  m_Loop: 0
--- !u!114 &1232411207966308708
MonoBehaviour:
  m_ObjectHideFlags: 0
  m_CorrespondingSourceObject: {fileID: 0}
  m_PrefabInstance: {fileID: 0}
  m_PrefabAsset: {fileID: 0}
  m_GameObject: {fileID: 1050397247967328077}
  m_Enabled: 1
  m_EditorHideFlags: 0
  m_Script: {fileID: 11500000, guid: b6d20671ad38ded4fa2362df353b9a31, type: 3}
  m_Name: 
  m_EditorClassIdentifier: 
  showHandles: 1
  hidden: 0
  parent: {fileID: 0}
  ccName: 
  fields: 1
  mathType: 0
  sectionParts: 30
  optimizeStraightLines: 0
  tolerance: 0.2
  usePositionToCalculateTangents: 0
  updateMode: 0
  rendererForUpdateCheck: {fileID: 0}
  mathChangedEvent:
    m_PersistentCalls:
      m_Calls: []
  spheresScale: 1
  spheresColor: {r: 1, g: 1, b: 1, a: 1}
  spheresCount: 100
--- !u!114 &3579404904214509102
MonoBehaviour:
  m_ObjectHideFlags: 0
  m_CorrespondingSourceObject: {fileID: 0}
  m_PrefabInstance: {fileID: 0}
  m_PrefabAsset: {fileID: 0}
  m_GameObject: {fileID: 1050397247967328077}
  m_Enabled: 1
  m_EditorHideFlags: 0
  m_Script: {fileID: 11500000, guid: 8a69af748a081a14dbc7aa333bece5af, type: 3}
  m_Name: 
  m_EditorClassIdentifier: 
  showHandles: 1
  hidden: 0
  parent: {fileID: 1232411207966308708}
  ccName: 
  splitMode: 0
  partsTotal: 30
  partsPerSection: 30
  doNotOptimizeStraightLines: 0
  useLocal: 0
  spheresScale: 1
  spheresColor: {r: 1, g: 1, b: 1, a: 1}
  spheresCount: 100
  updateAtStart: 0
--- !u!114 &8979288497374662718
MonoBehaviour:
  m_ObjectHideFlags: 0
  m_CorrespondingSourceObject: {fileID: 0}
  m_PrefabInstance: {fileID: 0}
  m_PrefabAsset: {fileID: 0}
  m_GameObject: {fileID: 1050397247967328077}
  m_Enabled: 1
  m_EditorHideFlags: 0
  m_Script: {fileID: 11500000, guid: 924df4c68ad59e943b47b75f2323f73a, type: 3}
  m_Name: 
  m_EditorClassIdentifier: 
  showHandles: 1
  hidden: 0
  parent: {fileID: 1232411207966308708}
  ccName: 
  distance: 5.6354413
  handlesScale: 1
  handlesColor: {r: 1, g: 1, b: 1, a: 1}
--- !u!114 &3527232805702087162
MonoBehaviour:
  m_ObjectHideFlags: 0
  m_CorrespondingSourceObject: {fileID: 0}
  m_PrefabInstance: {fileID: 0}
  m_PrefabAsset: {fileID: 0}
  m_GameObject: {fileID: 1050397247967328077}
  m_Enabled: 1
  m_EditorHideFlags: 0
  m_Script: {fileID: 11500000, guid: 9d916ef28168e544d9dc5bb790f67ba0, type: 3}
  m_Name: 
  m_EditorClassIdentifier: 
  showHandles: 1
  hidden: 0
  parent: {fileID: 8979288497374662718}
  ccName: 
  objectToManipulate: {fileID: 810299983553858386}
--- !u!1 &1435195523396897205
GameObject:
  m_ObjectHideFlags: 0
  m_CorrespondingSourceObject: {fileID: 0}
  m_PrefabInstance: {fileID: 0}
  m_PrefabAsset: {fileID: 0}
  serializedVersion: 6
  m_Component:
  - component: {fileID: 810299983553858386}
  - component: {fileID: 8944674232893629378}
  m_Layer: 0
  m_Name: p2 (1)
  m_TagString: Untagged
  m_Icon: {fileID: 0}
  m_NavMeshLayer: 0
  m_StaticEditorFlags: 0
  m_IsActive: 1
--- !u!4 &810299983553858386
Transform:
  m_ObjectHideFlags: 0
  m_CorrespondingSourceObject: {fileID: 0}
  m_PrefabInstance: {fileID: 0}
  m_PrefabAsset: {fileID: 0}
  m_GameObject: {fileID: 1435195523396897205}
  m_LocalRotation: {x: -0, y: -0, z: 0.39552382, w: -0.9184557}
  m_LocalPosition: {x: 1.0028868, y: -2.017001, z: 9}
  m_LocalScale: {x: 0.7, y: 0.7, z: 1}
  m_Children: []
  m_Father: {fileID: 680143257872012471}
  m_RootOrder: 3
  m_LocalEulerAnglesHint: {x: 0, y: 0, z: 313.40298}
--- !u!212 &8944674232893629378
SpriteRenderer:
  m_ObjectHideFlags: 0
  m_CorrespondingSourceObject: {fileID: 0}
  m_PrefabInstance: {fileID: 0}
  m_PrefabAsset: {fileID: 0}
  m_GameObject: {fileID: 1435195523396897205}
  m_Enabled: 1
  m_CastShadows: 0
  m_ReceiveShadows: 0
  m_DynamicOccludee: 1
  m_MotionVectors: 1
  m_LightProbeUsage: 1
  m_ReflectionProbeUsage: 1
  m_RayTracingMode: 0
  m_RenderingLayerMask: 1
  m_RendererPriority: 0
  m_Materials:
  - {fileID: 10754, guid: 0000000000000000f000000000000000, type: 0}
  m_StaticBatchInfo:
    firstSubMesh: 0
    subMeshCount: 0
  m_StaticBatchRoot: {fileID: 0}
  m_ProbeAnchor: {fileID: 0}
  m_LightProbeVolumeOverride: {fileID: 0}
  m_ScaleInLightmap: 1
  m_ReceiveGI: 1
  m_PreserveUVs: 0
  m_IgnoreNormalsForChartDetection: 0
  m_ImportantGI: 0
  m_StitchLightmapSeams: 1
  m_SelectedEditorRenderState: 0
  m_MinimumChartSize: 4
  m_AutoUVMaxDistance: 0.5
  m_AutoUVMaxAngle: 89
  m_LightmapParameters: {fileID: 0}
  m_SortingLayerID: 0
  m_SortingLayer: 0
  m_SortingOrder: 0
  m_Sprite: {fileID: 21300000, guid: 5b137d068d8b3884ebab022523259502, type: 3}
  m_Color: {r: 1, g: 1, b: 1, a: 1}
  m_FlipX: 0
  m_FlipY: 0
  m_DrawMode: 0
  m_Size: {x: 0.78, y: 0.78}
  m_AdaptiveModeThreshold: 0.5
  m_SpriteTileMode: 0
  m_WasSpriteAssigned: 1
  m_MaskInteraction: 0
  m_SpriteSortPoint: 0
--- !u!1 &4751969614970694695
GameObject:
  m_ObjectHideFlags: 0
  m_CorrespondingSourceObject: {fileID: 0}
  m_PrefabInstance: {fileID: 0}
  m_PrefabAsset: {fileID: 0}
  serializedVersion: 6
  m_Component:
  - component: {fileID: 2653363368105457425}
  - component: {fileID: 2317156663924569258}
  m_Layer: 0
  m_Name: p3
  m_TagString: Untagged
  m_Icon: {fileID: 0}
  m_NavMeshLayer: 0
  m_StaticEditorFlags: 0
  m_IsActive: 1
--- !u!4 &2653363368105457425
Transform:
  m_ObjectHideFlags: 0
  m_CorrespondingSourceObject: {fileID: 0}
  m_PrefabInstance: {fileID: 0}
  m_PrefabAsset: {fileID: 0}
  m_GameObject: {fileID: 4751969614970694695}
  m_LocalRotation: {x: -0, y: -0, z: 0.39249104, w: 0.9197559}
  m_LocalPosition: {x: 0.6665276, y: 0.27045685, z: 9}
  m_LocalScale: {x: 0.7, y: 0.7, z: 1}
  m_Children: []
  m_Father: {fileID: 680143257872012471}
  m_RootOrder: 2
  m_LocalEulerAnglesHint: {x: 0, y: 0, z: 46.219}
--- !u!212 &2317156663924569258
SpriteRenderer:
  m_ObjectHideFlags: 0
  m_CorrespondingSourceObject: {fileID: 0}
  m_PrefabInstance: {fileID: 0}
  m_PrefabAsset: {fileID: 0}
  m_GameObject: {fileID: 4751969614970694695}
  m_Enabled: 1
  m_CastShadows: 0
  m_ReceiveShadows: 0
  m_DynamicOccludee: 1
  m_MotionVectors: 1
  m_LightProbeUsage: 1
  m_ReflectionProbeUsage: 1
  m_RayTracingMode: 0
  m_RenderingLayerMask: 1
  m_RendererPriority: 0
  m_Materials:
  - {fileID: 10754, guid: 0000000000000000f000000000000000, type: 0}
  m_StaticBatchInfo:
    firstSubMesh: 0
    subMeshCount: 0
  m_StaticBatchRoot: {fileID: 0}
  m_ProbeAnchor: {fileID: 0}
  m_LightProbeVolumeOverride: {fileID: 0}
  m_ScaleInLightmap: 1
  m_ReceiveGI: 1
  m_PreserveUVs: 0
  m_IgnoreNormalsForChartDetection: 0
  m_ImportantGI: 0
  m_StitchLightmapSeams: 1
  m_SelectedEditorRenderState: 0
  m_MinimumChartSize: 4
  m_AutoUVMaxDistance: 0.5
  m_AutoUVMaxAngle: 89
  m_LightmapParameters: {fileID: 0}
  m_SortingLayerID: 0
  m_SortingLayer: 0
  m_SortingOrder: 0
  m_Sprite: {fileID: 21300000, guid: 5b137d068d8b3884ebab022523259502, type: 3}
  m_Color: {r: 1, g: 1, b: 1, a: 1}
  m_FlipX: 0
  m_FlipY: 0
  m_DrawMode: 0
  m_Size: {x: 0.78, y: 0.78}
  m_AdaptiveModeThreshold: 0.5
  m_SpriteTileMode: 0
  m_WasSpriteAssigned: 1
  m_MaskInteraction: 0
  m_SpriteSortPoint: 0
--- !u!1 &5405721400632210940
GameObject:
  m_ObjectHideFlags: 0
  m_CorrespondingSourceObject: {fileID: 0}
  m_PrefabInstance: {fileID: 0}
  m_PrefabAsset: {fileID: 0}
  serializedVersion: 6
  m_Component:
  - component: {fileID: 1811502231689107632}
  - component: {fileID: 4303097128319510325}
  - component: {fileID: 5874580126027141831}
  - component: {fileID: 3754771704324960929}
  - component: {fileID: 1631206100314205975}
  - component: {fileID: 8032342416908503562}
  - component: {fileID: 4000426278936904913}
  m_Layer: 0
  m_Name: Line 3
  m_TagString: Untagged
  m_Icon: {fileID: 0}
  m_NavMeshLayer: 0
  m_StaticEditorFlags: 0
  m_IsActive: 1
--- !u!4 &1811502231689107632
Transform:
  m_ObjectHideFlags: 0
  m_CorrespondingSourceObject: {fileID: 0}
  m_PrefabInstance: {fileID: 0}
  m_PrefabAsset: {fileID: 0}
  m_GameObject: {fileID: 5405721400632210940}
  m_LocalRotation: {x: 0, y: 0, z: 0.38268343, w: 0.92387956}
  m_LocalPosition: {x: 0, y: 0.62, z: 0}
  m_LocalScale: {x: 1.3, y: 0.361108, z: 1}
  m_Children: []
  m_Father: {fileID: 680143259434305933}
  m_RootOrder: 2
  m_LocalEulerAnglesHint: {x: 0, y: 0, z: 45}
--- !u!114 &4303097128319510325
MonoBehaviour:
  m_ObjectHideFlags: 0
  m_CorrespondingSourceObject: {fileID: 0}
  m_PrefabInstance: {fileID: 0}
  m_PrefabAsset: {fileID: 0}
  m_GameObject: {fileID: 5405721400632210940}
  m_Enabled: 1
  m_EditorHideFlags: 0
  m_Script: {fileID: 11500000, guid: e70f079e2a6bf364e8185b765fbe61c0, type: 3}
  m_Name: 
  m_EditorClassIdentifier: 
  settings:
    hideHandles: 0
    newPointDistance: 2
    showCurve: 1
    showCurveMode: 1
    showCurveOption: 0
    sections: 20
    showPointMenu: 1
    showTangents: 0
    tangentsSize: 0.7
    tangentsColor: {r: 1, g: 1, b: 1, a: 1}
    tangentsPerSection: 1
    controlType: 1
    vRay: 0
    lineColor: {r: 1, g: 0, b: 0, a: 1}
    restrictGizmoz: 
    showPointControlType: 1
    showPointPosition: 1
    showHandles: 1
    handlesType: 0
    handlesSettings:
      RemoveX: 0
      RemoveY: 0
      RemoveZ: 1
      RemoveXZ: 1
      RemoveXY: 0
      RemoveYZ: 1
      AxisScale: 1
      PlanesScale: 1
      Alpha: 1
    showLabels: 1
    labelColor: {r: 1, g: 1, b: 1, a: 1}
    showPositions: 0
    labelColorSelected: {r: 0, g: 1, b: 0, a: 1}
    showSpheres: 1
    sphereRadius: 0.1
    sphereColor: {r: 1, g: 0, b: 0, a: 1}
    showPointControlPositions: 1
    showControlHandles: 1
    controlHandlesType: 0
    controlHandlesSettings:
      RemoveX: 0
      RemoveY: 0
      RemoveZ: 1
      RemoveXZ: 1
      RemoveXY: 0
      RemoveYZ: 1
      AxisScale: 0.7
      PlanesScale: 0.7
      Alpha: 0.7
    controlHandlesColor: {r: 0, g: 1, b: 1, a: 1}
    showControlLabels: 1
    showControlPositions: 0
    labelControlColor: {r: 1, g: 0.92156863, b: 0.015686275, a: 1}
    showTransformField: 0
    existing: 1
  mode2D: 1
  closed: 1
  points:
  - controlType: 1
    positionLocal: {x: 0, y: 2, z: 0}
    controlFirstLocal: {x: -1, y: 0, z: -0}
    controlSecondLocal: {x: 1, y: -0, z: 0}
    pointTransform: {fileID: 0}
    curve: {fileID: 4303097128319510325}
    fieldsValues: []
  - controlType: 1
    positionLocal: {x: 2, y: 0, z: 0}
    controlFirstLocal: {x: 0, y: 1, z: -0}
    controlSecondLocal: {x: -0, y: -1, z: 0}
    pointTransform: {fileID: 0}
    curve: {fileID: 4303097128319510325}
    fieldsValues: []
  - controlType: 1
    positionLocal: {x: 0, y: -2, z: 0}
    controlFirstLocal: {x: 1, y: 0, z: -0}
    controlSecondLocal: {x: -1, y: -0, z: 0}
    pointTransform: {fileID: 0}
    curve: {fileID: 4303097128319510325}
    fieldsValues: []
  - controlType: 1
    positionLocal: {x: -2, y: 0, z: 0}
    controlFirstLocal: {x: 0, y: -1, z: -0}
    controlSecondLocal: {x: -0, y: 1, z: 0}
    pointTransform: {fileID: 0}
    curve: {fileID: 4303097128319510325}
    fieldsValues: []
  pointsComponents: []
  pointsGameObjects: []
  fields: []
  snapType: 0
  snapAxis: 1
  snapDistance: 10
  snapLayerMask:
    serializedVersion: 2
    m_Bits: 4294967295
  snapTriggerInteraction: 0
  snapToBackFaces: 0
  snapMonitoring: 0
  eventMode: 0
  pointsMode: 0
  forceChangedEventMode: 0
--- !u!120 &5874580126027141831
LineRenderer:
  m_ObjectHideFlags: 0
  m_CorrespondingSourceObject: {fileID: 0}
  m_PrefabInstance: {fileID: 0}
  m_PrefabAsset: {fileID: 0}
  m_GameObject: {fileID: 5405721400632210940}
  m_Enabled: 1
  m_CastShadows: 1
  m_ReceiveShadows: 1
  m_DynamicOccludee: 1
  m_MotionVectors: 0
  m_LightProbeUsage: 0
  m_ReflectionProbeUsage: 0
  m_RayTracingMode: 0
  m_RenderingLayerMask: 1
  m_RendererPriority: 0
  m_Materials:
  - {fileID: 2100000, guid: 6cb3650f50dfad54c8b05afcedfa398d, type: 2}
  m_StaticBatchInfo:
    firstSubMesh: 0
    subMeshCount: 0
  m_StaticBatchRoot: {fileID: 0}
  m_ProbeAnchor: {fileID: 0}
  m_LightProbeVolumeOverride: {fileID: 0}
  m_ScaleInLightmap: 1
  m_ReceiveGI: 1
  m_PreserveUVs: 0
  m_IgnoreNormalsForChartDetection: 0
  m_ImportantGI: 0
  m_StitchLightmapSeams: 1
  m_SelectedEditorRenderState: 3
  m_MinimumChartSize: 4
  m_AutoUVMaxDistance: 0.5
  m_AutoUVMaxAngle: 89
  m_LightmapParameters: {fileID: 0}
  m_SortingLayerID: 0
  m_SortingLayer: 0
  m_SortingOrder: 0
  m_Positions:
  - {x: -0.51068383, y: 1.1306839, z: 0}
  - {x: -0.41795233, y: 1.221732, z: 0}
  - {x: -0.32377952, y: 1.3109304, z: 0}
  - {x: -0.22842652, y: 1.3981314, z: 0}
  - {x: -0.13215427, y: 1.4831874, z: 0}
  - {x: -0.035223812, y: 1.5659511, z: 0}
  - {x: 0.062103838, y: 1.6462749, z: 0}
  - {x: 0.15956765, y: 1.7240112, z: 0}
  - {x: 0.25690663, y: 1.7990124, z: 0}
  - {x: 0.35385972, y: 1.8711312, z: 0}
  - {x: 0.45016596, y: 1.9402199, z: 0}
  - {x: 0.5455643, y: 2.006131, z: 0}
  - {x: 0.6397937, y: 2.0687168, z: 0}
  - {x: 0.7325932, y: 2.12783, z: 0}
  - {x: 0.8237017, y: 2.1833231, z: 0}
  - {x: 0.91285825, y: 2.2350483, z: 0}
  - {x: 0.9998018, y: 2.2828584, z: 0}
  - {x: 1.0842713, y: 2.3266058, z: 0}
  - {x: 1.1660058, y: 2.3661425, z: 0}
  - {x: 1.2447443, y: 2.4013216, z: 0}
  - {x: 1.3202257, y: 2.4319954, z: 0}
  - {x: 1.3921891, y: 2.458016, z: 0}
  - {x: 1.4603734, y: 2.4792361, z: 0}
  - {x: 1.5245174, y: 2.4955084, z: 0}
  - {x: 1.5843605, y: 2.5066853, z: 0}
  - {x: 1.6396413, y: 2.5126188, z: 0}
  - {x: 1.690099, y: 2.513162, z: 0}
  - {x: 1.7354724, y: 2.5081668, z: 0}
  - {x: 1.7755008, y: 2.497486, z: 0}
  - {x: 1.8099228, y: 2.480972, z: 0}
  - {x: 1.8384776, y: 2.4584775, z: 0}
  - {x: 1.8609723, y: 2.4299226, z: 0}
  - {x: 1.8774862, y: 2.3955007, z: 0}
  - {x: 1.8881669, y: 2.3554723, z: 0}
  - {x: 1.893162, y: 2.310099, z: 0}
  - {x: 1.892619, y: 2.2596412, z: 0}
  - {x: 1.8866853, y: 2.2043602, z: 0}
  - {x: 1.8755085, y: 2.1445174, z: 0}
  - {x: 1.8592364, y: 2.0803733, z: 0}
  - {x: 1.8380162, y: 2.012189, z: 0}
  - {x: 1.8119954, y: 1.9402256, z: 0}
  - {x: 1.7813218, y: 1.8647442, z: 0}
  - {x: 1.7461427, y: 1.7860057, z: 0}
  - {x: 1.7066058, y: 1.7042712, z: 0}
  - {x: 1.6628586, y: 1.6198016, z: 0}
  - {x: 1.6150485, y: 1.5328581, z: 0}
  - {x: 1.5633231, y: 1.4437016, z: 0}
  - {x: 1.5078301, y: 1.3525931, z: 0}
  - {x: 1.4487169, y: 1.2597936, z: 0}
  - {x: 1.3861309, y: 1.1655642, z: 0}
  - {x: 1.3202199, y: 1.0701659, z: 0}
  - {x: 1.2511312, y: 0.97385967, z: 0}
  - {x: 1.1790124, y: 0.8769066, z: 0}
  - {x: 1.1040112, y: 0.7795676, z: 0}
  - {x: 1.0262749, y: 0.6821038, z: 0}
  - {x: 0.9459511, y: 0.58477616, z: 0}
  - {x: 0.86318743, y: 0.48784572, z: 0}
  - {x: 0.7781313, y: 0.39157346, z: 0}
  - {x: 0.6909303, y: 0.29622045, z: 0}
  - {x: 0.60173196, y: 0.20204768, z: 0}
  - {x: 0.51068383, y: 0.10931617, z: 0}
  - {x: 0.41795233, y: 0.018268025, z: 0}
  - {x: 0.32377952, y: -0.07093031, z: 0}
  - {x: 0.22842652, y: -0.1581313, z: 0}
  - {x: 0.13215427, y: -0.24318741, z: 0}
  - {x: 0.035223812, y: -0.3259511, z: 0}
  - {x: -0.062103838, y: -0.40627486, z: 0}
  - {x: -0.15956765, y: -0.48401114, z: 0}
  - {x: -0.25690663, y: -0.5590124, z: 0}
  - {x: -0.35385972, y: -0.6311312, z: 0}
  - {x: -0.45016596, y: -0.7002198, z: 0}
  - {x: -0.5455643, y: -0.76613086, z: 0}
  - {x: -0.6397937, y: -0.8287168, z: 0}
  - {x: -0.7325932, y: -0.88783, z: 0}
  - {x: -0.8237017, y: -0.9433231, z: 0}
  - {x: -0.91285825, y: -0.9950484, z: 0}
  - {x: -0.9998018, y: -1.0428585, z: 0}
  - {x: -1.0842713, y: -1.0866057, z: 0}
  - {x: -1.1660058, y: -1.1261426, z: 0}
  - {x: -1.2447443, y: -1.1613216, z: 0}
  - {x: -1.3202257, y: -1.1919953, z: 0}
  - {x: -1.3921891, y: -1.2180159, z: 0}
  - {x: -1.4603734, y: -1.2392362, z: 0}
  - {x: -1.5245174, y: -1.2555084, z: 0}
  - {x: -1.5843605, y: -1.2666851, z: 0}
  - {x: -1.6396413, y: -1.2726188, z: 0}
  - {x: -1.690099, y: -1.2731619, z: 0}
  - {x: -1.7354724, y: -1.2681668, z: 0}
  - {x: -1.7755008, y: -1.2574861, z: 0}
  - {x: -1.8099228, y: -1.2409722, z: 0}
  - {x: -1.8384776, y: -1.2184775, z: 0}
  - {x: -1.8609723, y: -1.1899227, z: 0}
  - {x: -1.8774862, y: -1.1555007, z: 0}
  - {x: -1.8881669, y: -1.1154723, z: 0}
  - {x: -1.893162, y: -1.0700989, z: 0}
  - {x: -1.892619, y: -1.0196412, z: 0}
  - {x: -1.8866853, y: -0.96436036, z: 0}
  - {x: -1.8755085, y: -0.90451735, z: 0}
  - {x: -1.8592364, y: -0.8403732, z: 0}
  - {x: -1.8380162, y: -0.77218896, z: 0}
  - {x: -1.8119954, y: -0.70022565, z: 0}
  - {x: -1.7813218, y: -0.62474424, z: 0}
  - {x: -1.7461427, y: -0.5460058, z: 0}
  - {x: -1.7066058, y: -0.46427125, z: 0}
  - {x: -1.6628586, y: -0.3798017, z: 0}
  - {x: -1.6150485, y: -0.29285812, z: 0}
  - {x: -1.5633231, y: -0.2037016, z: 0}
  - {x: -1.5078301, y: -0.11259308, z: 0}
  - {x: -1.4487169, y: -0.01979361, z: 0}
  - {x: -1.3861309, y: 0.07443579, z: 0}
  - {x: -1.3202199, y: 0.16983412, z: 0}
  - {x: -1.2511312, y: 0.26614034, z: 0}
  - {x: -1.1790124, y: 0.36309344, z: 0}
  - {x: -1.1040112, y: 0.4604324, z: 0}
  - {x: -1.0262749, y: 0.55789626, z: 0}
  - {x: -0.9459511, y: 0.6552239, z: 0}
  - {x: -0.86318743, y: 0.75215435, z: 0}
  - {x: -0.7781313, y: 0.8484266, z: 0}
  - {x: -0.6909303, y: 0.9437796, z: 0}
  - {x: -0.60173196, y: 1.0379524, z: 0}
  - {x: -0.51068383, y: 1.1306839, z: 0}
  m_Parameters:
    serializedVersion: 3
    widthMultiplier: 1
    widthCurve:
      serializedVersion: 2
      m_Curve:
      - serializedVersion: 3
        time: 0
        value: 0.05
        inSlope: 0
        outSlope: 0
        tangentMode: 0
        weightedMode: 0
        inWeight: 0.33333334
        outWeight: 0.33333334
      m_PreInfinity: 2
      m_PostInfinity: 2
      m_RotationOrder: 4
    colorGradient:
      serializedVersion: 2
      key0: {r: 1, g: 1, b: 1, a: 1}
      key1: {r: 1, g: 1, b: 1, a: 1}
      key2: {r: 0, g: 0, b: 0, a: 0}
      key3: {r: 0, g: 0, b: 0, a: 0}
      key4: {r: 0, g: 0, b: 0, a: 0}
      key5: {r: 0, g: 0, b: 0, a: 0}
      key6: {r: 0, g: 0, b: 0, a: 0}
      key7: {r: 0, g: 0, b: 0, a: 0}
      ctime0: 0
      ctime1: 65535
      ctime2: 0
      ctime3: 0
      ctime4: 0
      ctime5: 0
      ctime6: 0
      ctime7: 0
      atime0: 0
      atime1: 65535
      atime2: 0
      atime3: 0
      atime4: 0
      atime5: 0
      atime6: 0
      atime7: 0
      m_Mode: 0
      m_NumColorKeys: 2
      m_NumAlphaKeys: 2
    numCornerVertices: 0
    numCapVertices: 0
    alignment: 0
    textureMode: 0
    shadowBias: 0.5
    generateLightingData: 0
  m_UseWorldSpace: 1
  m_Loop: 0
--- !u!114 &3754771704324960929
MonoBehaviour:
  m_ObjectHideFlags: 0
  m_CorrespondingSourceObject: {fileID: 0}
  m_PrefabInstance: {fileID: 0}
  m_PrefabAsset: {fileID: 0}
  m_GameObject: {fileID: 5405721400632210940}
  m_Enabled: 1
  m_EditorHideFlags: 0
  m_Script: {fileID: 11500000, guid: b6d20671ad38ded4fa2362df353b9a31, type: 3}
  m_Name: 
  m_EditorClassIdentifier: 
  showHandles: 1
  hidden: 0
  parent: {fileID: 0}
  ccName: 
  fields: 1
  mathType: 0
  sectionParts: 30
  optimizeStraightLines: 0
  tolerance: 0.2
  usePositionToCalculateTangents: 0
  updateMode: 0
  rendererForUpdateCheck: {fileID: 0}
  mathChangedEvent:
    m_PersistentCalls:
      m_Calls: []
  spheresScale: 1
  spheresColor: {r: 1, g: 1, b: 1, a: 1}
  spheresCount: 100
--- !u!114 &1631206100314205975
MonoBehaviour:
  m_ObjectHideFlags: 0
  m_CorrespondingSourceObject: {fileID: 0}
  m_PrefabInstance: {fileID: 0}
  m_PrefabAsset: {fileID: 0}
  m_GameObject: {fileID: 5405721400632210940}
  m_Enabled: 1
  m_EditorHideFlags: 0
  m_Script: {fileID: 11500000, guid: 8a69af748a081a14dbc7aa333bece5af, type: 3}
  m_Name: 
  m_EditorClassIdentifier: 
  showHandles: 1
  hidden: 0
  parent: {fileID: 3754771704324960929}
  ccName: 
  splitMode: 0
  partsTotal: 30
  partsPerSection: 30
  doNotOptimizeStraightLines: 0
  useLocal: 0
  spheresScale: 1
  spheresColor: {r: 1, g: 1, b: 1, a: 1}
  spheresCount: 100
  updateAtStart: 0
--- !u!114 &8032342416908503562
MonoBehaviour:
  m_ObjectHideFlags: 0
  m_CorrespondingSourceObject: {fileID: 0}
  m_PrefabInstance: {fileID: 0}
  m_PrefabAsset: {fileID: 0}
  m_GameObject: {fileID: 5405721400632210940}
  m_Enabled: 1
  m_EditorHideFlags: 0
  m_Script: {fileID: 11500000, guid: 924df4c68ad59e943b47b75f2323f73a, type: 3}
  m_Name: 
  m_EditorClassIdentifier: 
  showHandles: 1
  hidden: 0
  parent: {fileID: 3754771704324960929}
  ccName: 
  distance: 5.3803554
  handlesScale: 1
  handlesColor: {r: 1, g: 1, b: 1, a: 1}
--- !u!114 &4000426278936904913
MonoBehaviour:
  m_ObjectHideFlags: 0
  m_CorrespondingSourceObject: {fileID: 0}
  m_PrefabInstance: {fileID: 0}
  m_PrefabAsset: {fileID: 0}
  m_GameObject: {fileID: 5405721400632210940}
  m_Enabled: 1
  m_EditorHideFlags: 0
  m_Script: {fileID: 11500000, guid: 9d916ef28168e544d9dc5bb790f67ba0, type: 3}
  m_Name: 
  m_EditorClassIdentifier: 
  showHandles: 1
  hidden: 0
  parent: {fileID: 8032342416908503562}
  ccName: 
  objectToManipulate: {fileID: 2653363368105457425}
--- !u!1 &6513325920980087849
GameObject:
  m_ObjectHideFlags: 0
  m_CorrespondingSourceObject: {fileID: 0}
  m_PrefabInstance: {fileID: 0}
  m_PrefabAsset: {fileID: 0}
  serializedVersion: 6
  m_Component:
  - component: {fileID: 2502981771543861341}
  - component: {fileID: 7744803622809338822}
  - component: {fileID: 8893855672601647036}
  - component: {fileID: 2334498985920580780}
  - component: {fileID: 6018586254048828756}
  - component: {fileID: 2781298051935156772}
  - component: {fileID: 275218227631271350}
  m_Layer: 0
  m_Name: Line 2
  m_TagString: Untagged
  m_Icon: {fileID: 0}
  m_NavMeshLayer: 0
  m_StaticEditorFlags: 0
  m_IsActive: 1
--- !u!4 &2502981771543861341
Transform:
  m_ObjectHideFlags: 0
  m_CorrespondingSourceObject: {fileID: 0}
  m_PrefabInstance: {fileID: 0}
  m_PrefabAsset: {fileID: 0}
  m_GameObject: {fileID: 6513325920980087849}
  m_LocalRotation: {x: -0, y: -0, z: -0.47654283, w: 0.8791512}
  m_LocalPosition: {x: 0, y: 0.62, z: 0}
  m_LocalScale: {x: 1.9976548, y: 0.43732, z: 1}
  m_Children: []
  m_Father: {fileID: 680143259434305933}
  m_RootOrder: 1
  m_LocalEulerAnglesHint: {x: 0, y: 0, z: -56.920002}
--- !u!114 &7744803622809338822
MonoBehaviour:
  m_ObjectHideFlags: 0
  m_CorrespondingSourceObject: {fileID: 0}
  m_PrefabInstance: {fileID: 0}
  m_PrefabAsset: {fileID: 0}
  m_GameObject: {fileID: 6513325920980087849}
  m_Enabled: 1
  m_EditorHideFlags: 0
  m_Script: {fileID: 11500000, guid: e70f079e2a6bf364e8185b765fbe61c0, type: 3}
  m_Name: 
  m_EditorClassIdentifier: 
  settings:
    hideHandles: 0
    newPointDistance: 2
    showCurve: 1
    showCurveMode: 1
    showCurveOption: 0
    sections: 20
    showPointMenu: 1
    showTangents: 0
    tangentsSize: 0.7
    tangentsColor: {r: 1, g: 1, b: 1, a: 1}
    tangentsPerSection: 1
    controlType: 1
    vRay: 0
    lineColor: {r: 1, g: 0, b: 0, a: 1}
    restrictGizmoz: 
    showPointControlType: 1
    showPointPosition: 1
    showHandles: 1
    handlesType: 0
    handlesSettings:
      RemoveX: 0
      RemoveY: 0
      RemoveZ: 1
      RemoveXZ: 1
      RemoveXY: 0
      RemoveYZ: 1
      AxisScale: 1
      PlanesScale: 1
      Alpha: 1
    showLabels: 1
    labelColor: {r: 1, g: 1, b: 1, a: 1}
    showPositions: 0
    labelColorSelected: {r: 0, g: 1, b: 0, a: 1}
    showSpheres: 1
    sphereRadius: 0.1
    sphereColor: {r: 1, g: 0, b: 0, a: 1}
    showPointControlPositions: 1
    showControlHandles: 1
    controlHandlesType: 0
    controlHandlesSettings:
      RemoveX: 0
      RemoveY: 0
      RemoveZ: 1
      RemoveXZ: 1
      RemoveXY: 0
      RemoveYZ: 1
      AxisScale: 0.7
      PlanesScale: 0.7
      Alpha: 0.7
    controlHandlesColor: {r: 0, g: 1, b: 1, a: 1}
    showControlLabels: 1
    showControlPositions: 0
    labelControlColor: {r: 1, g: 0.92156863, b: 0.015686275, a: 1}
    showTransformField: 0
    existing: 1
  mode2D: 1
  closed: 1
  points:
  - controlType: 1
    positionLocal: {x: 0, y: 2, z: 0}
    controlFirstLocal: {x: -1, y: 0, z: -0}
    controlSecondLocal: {x: 1, y: -0, z: 0}
    pointTransform: {fileID: 0}
    curve: {fileID: 7744803622809338822}
    fieldsValues: []
  - controlType: 1
    positionLocal: {x: 2, y: 0, z: 0}
    controlFirstLocal: {x: 0, y: 1, z: -0}
    controlSecondLocal: {x: -0, y: -1, z: 0}
    pointTransform: {fileID: 0}
    curve: {fileID: 7744803622809338822}
    fieldsValues: []
  - controlType: 1
    positionLocal: {x: 0, y: -2, z: 0}
    controlFirstLocal: {x: 1, y: 0, z: -0}
    controlSecondLocal: {x: -1, y: -0, z: 0}
    pointTransform: {fileID: 0}
    curve: {fileID: 7744803622809338822}
    fieldsValues: []
  - controlType: 1
    positionLocal: {x: -2, y: 0, z: 0}
    controlFirstLocal: {x: 0, y: -1, z: -0}
    controlSecondLocal: {x: -0, y: 1, z: 0}
    pointTransform: {fileID: 0}
    curve: {fileID: 7744803622809338822}
    fieldsValues: []
  pointsComponents: []
  pointsGameObjects: []
  fields: []
  snapType: 0
  snapAxis: 1
  snapDistance: 10
  snapLayerMask:
    serializedVersion: 2
    m_Bits: 4294967295
  snapTriggerInteraction: 0
  snapToBackFaces: 0
  snapMonitoring: 0
  eventMode: 0
  pointsMode: 0
  forceChangedEventMode: 0
--- !u!120 &8893855672601647036
LineRenderer:
  m_ObjectHideFlags: 0
  m_CorrespondingSourceObject: {fileID: 0}
  m_PrefabInstance: {fileID: 0}
  m_PrefabAsset: {fileID: 0}
  m_GameObject: {fileID: 6513325920980087849}
  m_Enabled: 1
  m_CastShadows: 1
  m_ReceiveShadows: 1
  m_DynamicOccludee: 1
  m_MotionVectors: 0
  m_LightProbeUsage: 0
  m_ReflectionProbeUsage: 0
  m_RayTracingMode: 0
  m_RenderingLayerMask: 1
  m_RendererPriority: 0
  m_Materials:
  - {fileID: 2100000, guid: 6cb3650f50dfad54c8b05afcedfa398d, type: 2}
  m_StaticBatchInfo:
    firstSubMesh: 0
    subMeshCount: 0
  m_StaticBatchRoot: {fileID: 0}
  m_ProbeAnchor: {fileID: 0}
  m_LightProbeVolumeOverride: {fileID: 0}
  m_ScaleInLightmap: 1
  m_ReceiveGI: 1
  m_PreserveUVs: 0
  m_IgnoreNormalsForChartDetection: 0
  m_ImportantGI: 0
  m_StitchLightmapSeams: 1
  m_SelectedEditorRenderState: 3
  m_MinimumChartSize: 4
  m_AutoUVMaxDistance: 0.5
  m_AutoUVMaxAngle: 89
  m_LightmapParameters: {fileID: 0}
  m_SortingLayerID: 0
  m_SortingLayer: 0
  m_SortingOrder: 0
  m_Positions:
  - {x: 0.73286647, y: 1.0973907, z: 0}
  - {x: 0.84065294, y: 0.92928106, z: 0}
  - {x: 0.9458357, y: 0.7600052, z: 0}
  - {x: 1.0482538, y: 0.589988, z: 0}
  - {x: 1.1477464, y: 0.41965455, z: 0}
  - {x: 1.2441527, y: 0.24942984, z: 0}
  - {x: 1.3373117, y: 0.07973888, z: 0}
  - {x: 1.4270626, y: -0.08899333, z: 0}
  - {x: 1.5132445, y: -0.2563418, z: 0}
  - {x: 1.5956967, y: -0.42188144, z: 0}
  - {x: 1.674258, y: -0.5851873, z: 0}
  - {x: 1.7487677, y: -0.7458344, z: 0}
  - {x: 1.8190651, y: -0.9033977, z: 0}
  - {x: 1.8849891, y: -1.0574522, z: 0}
  - {x: 1.946379, y: -1.2075728, z: 0}
  - {x: 2.0030737, y: -1.3533347, z: 0}
  - {x: 2.0549126, y: -1.4943126, z: 0}
  - {x: 2.1017344, y: -1.6300818, z: 0}
  - {x: 2.1433787, y: -1.7602171, z: 0}
  - {x: 2.1796846, y: -1.8842934, z: 0}
  - {x: 2.210491, y: -2.001886, z: 0}
  - {x: 2.235637, y: -2.1125696, z: 0}
  - {x: 2.254962, y: -2.2159193, z: 0}
  - {x: 2.2683048, y: -2.31151, z: 0}
  - {x: 2.2755048, y: -2.398917, z: 0}
  - {x: 2.276401, y: -2.477715, z: 0}
  - {x: 2.2708325, y: -2.547479, z: 0}
  - {x: 2.2586386, y: -2.607784, z: 0}
  - {x: 2.2396584, y: -2.658205, z: 0}
  - {x: 2.2137308, y: -2.6983173, z: 0}
  - {x: 2.1806953, y: -2.7276955, z: 0}
  - {x: 2.1404715, y: -2.7460387, z: 0}
  - {x: 2.0933022, y: -2.753542, z: 0}
  - {x: 2.0395117, y: -2.7505238, z: 0}
  - {x: 1.9794233, y: -2.7373037, z: 0}
  - {x: 1.9133607, y: -2.7142, z: 0}
  - {x: 1.8416479, y: -2.6815321, z: 0}
  - {x: 1.7646084, y: -2.6396189, z: 0}
  - {x: 1.682566, y: -2.588779, z: 0}
  - {x: 1.5958446, y: -2.5293317, z: 0}
  - {x: 1.5047677, y: -2.4615955, z: 0}
  - {x: 1.409659, y: -2.3858895, z: 0}
  - {x: 1.3108425, y: -2.3025327, z: 0}
  - {x: 1.2086416, y: -2.2118442, z: 0}
  - {x: 1.1033804, y: -2.1141424, z: 0}
  - {x: 0.9953823, y: -2.0097468, z: 0}
  - {x: 0.8849712, y: -1.8989758, z: 0}
  - {x: 0.7724707, y: -1.7821488, z: 0}
  - {x: 0.6582047, y: -1.6595844, z: 0}
  - {x: 0.5424968, y: -1.5316017, z: 0}
  - {x: 0.42567074, y: -1.3985194, z: 0}
  - {x: 0.3080503, y: -1.2606567, z: 0}
  - {x: 0.18995918, y: -1.1183324, z: 0}
  - {x: 0.07172113, y: -0.97186536, z: 0}
  - {x: -0.046340138, y: -0.82157457, z: 0}
  - {x: -0.1639009, y: -0.66777897, z: 0}
  - {x: -0.2806374, y: -0.51079744, z: 0}
  - {x: -0.39622596, y: -0.3509489, z: 0}
  - {x: -0.5103428, y: -0.1885523, z: 0}
  - {x: -0.6226642, y: -0.023926567, z: 0}
  - {x: -0.73286647, y: 0.14260939, z: 0}
  - {x: -0.84065294, y: 0.31071898, z: 0}
  - {x: -0.9458357, y: 0.47999486, z: 0}
  - {x: -1.0482538, y: 0.650012, z: 0}
  - {x: -1.1477464, y: 0.82034546, z: 0}
  - {x: -1.2441527, y: 0.9905702, z: 0}
  - {x: -1.3373117, y: 1.1602612, z: 0}
  - {x: -1.4270626, y: 1.3289933, z: 0}
  - {x: -1.5132445, y: 1.4963417, z: 0}
  - {x: -1.5956967, y: 1.6618814, z: 0}
  - {x: -1.674258, y: 1.8251873, z: 0}
  - {x: -1.7487677, y: 1.9858344, z: 0}
  - {x: -1.8190651, y: 2.1433976, z: 0}
  - {x: -1.8849891, y: 2.2974522, z: 0}
  - {x: -1.946379, y: 2.4475727, z: 0}
  - {x: -2.0030737, y: 2.5933347, z: 0}
  - {x: -2.0549126, y: 2.7343125, z: 0}
  - {x: -2.1017344, y: 2.8700817, z: 0}
  - {x: -2.1433787, y: 3.000217, z: 0}
  - {x: -2.1796846, y: 3.1242933, z: 0}
  - {x: -2.210491, y: 3.241886, z: 0}
  - {x: -2.235637, y: 3.3525696, z: 0}
  - {x: -2.254962, y: 3.4559193, z: 0}
  - {x: -2.2683048, y: 3.55151, z: 0}
  - {x: -2.2755048, y: 3.638917, z: 0}
  - {x: -2.276401, y: 3.717715, z: 0}
  - {x: -2.2708325, y: 3.787479, z: 0}
  - {x: -2.2586386, y: 3.847784, z: 0}
  - {x: -2.2396584, y: 3.8982053, z: 0}
  - {x: -2.2137308, y: 3.9383175, z: 0}
  - {x: -2.1806953, y: 3.9676957, z: 0}
  - {x: -2.1404715, y: 3.986039, z: 0}
  - {x: -2.0933022, y: 3.993542, z: 0}
  - {x: -2.0395117, y: 3.990524, z: 0}
  - {x: -1.9794233, y: 3.9773037, z: 0}
  - {x: -1.9133607, y: 3.9542003, z: 0}
  - {x: -1.8416479, y: 3.9215324, z: 0}
  - {x: -1.7646084, y: 3.879619, z: 0}
  - {x: -1.682566, y: 3.828779, z: 0}
  - {x: -1.5958446, y: 3.7693317, z: 0}
  - {x: -1.5047677, y: 3.7015955, z: 0}
  - {x: -1.409659, y: 3.6258895, z: 0}
  - {x: -1.3108425, y: 3.5425327, z: 0}
  - {x: -1.2086416, y: 3.4518442, z: 0}
  - {x: -1.1033804, y: 3.3541424, z: 0}
  - {x: -0.9953823, y: 3.2497468, z: 0}
  - {x: -0.8849712, y: 3.1389759, z: 0}
  - {x: -0.7724707, y: 3.0221488, z: 0}
  - {x: -0.6582047, y: 2.8995845, z: 0}
  - {x: -0.5424968, y: 2.7716017, z: 0}
  - {x: -0.42567074, y: 2.6385195, z: 0}
  - {x: -0.3080503, y: 2.5006568, z: 0}
  - {x: -0.18995918, y: 2.3583324, z: 0}
  - {x: -0.07172113, y: 2.2118654, z: 0}
  - {x: 0.046340138, y: 2.0615747, z: 0}
  - {x: 0.1639009, y: 1.907779, z: 0}
  - {x: 0.2806374, y: 1.7507975, z: 0}
  - {x: 0.39622596, y: 1.5909489, z: 0}
  - {x: 0.5103428, y: 1.4285524, z: 0}
  - {x: 0.6226642, y: 1.2639266, z: 0}
  - {x: 0.73286647, y: 1.0973907, z: 0}
  m_Parameters:
    serializedVersion: 3
    widthMultiplier: 1
    widthCurve:
      serializedVersion: 2
      m_Curve:
      - serializedVersion: 3
        time: 0
        value: 0.05
        inSlope: 0
        outSlope: 0
        tangentMode: 0
        weightedMode: 0
        inWeight: 0.33333334
        outWeight: 0.33333334
      m_PreInfinity: 2
      m_PostInfinity: 2
      m_RotationOrder: 4
    colorGradient:
      serializedVersion: 2
      key0: {r: 1, g: 1, b: 1, a: 1}
      key1: {r: 1, g: 1, b: 1, a: 1}
      key2: {r: 0, g: 0, b: 0, a: 0}
      key3: {r: 0, g: 0, b: 0, a: 0}
      key4: {r: 0, g: 0, b: 0, a: 0}
      key5: {r: 0, g: 0, b: 0, a: 0}
      key6: {r: 0, g: 0, b: 0, a: 0}
      key7: {r: 0, g: 0, b: 0, a: 0}
      ctime0: 0
      ctime1: 65535
      ctime2: 0
      ctime3: 0
      ctime4: 0
      ctime5: 0
      ctime6: 0
      ctime7: 0
      atime0: 0
      atime1: 65535
      atime2: 0
      atime3: 0
      atime4: 0
      atime5: 0
      atime6: 0
      atime7: 0
      m_Mode: 0
      m_NumColorKeys: 2
      m_NumAlphaKeys: 2
    numCornerVertices: 0
    numCapVertices: 0
    alignment: 0
    textureMode: 0
    shadowBias: 0.5
    generateLightingData: 0
  m_UseWorldSpace: 1
  m_Loop: 0
--- !u!114 &2334498985920580780
MonoBehaviour:
  m_ObjectHideFlags: 0
  m_CorrespondingSourceObject: {fileID: 0}
  m_PrefabInstance: {fileID: 0}
  m_PrefabAsset: {fileID: 0}
  m_GameObject: {fileID: 6513325920980087849}
  m_Enabled: 1
  m_EditorHideFlags: 0
  m_Script: {fileID: 11500000, guid: b6d20671ad38ded4fa2362df353b9a31, type: 3}
  m_Name: 
  m_EditorClassIdentifier: 
  showHandles: 1
  hidden: 0
  parent: {fileID: 0}
  ccName: 
  fields: 1
  mathType: 0
  sectionParts: 30
  optimizeStraightLines: 0
  tolerance: 0.2
  usePositionToCalculateTangents: 0
  updateMode: 0
  rendererForUpdateCheck: {fileID: 0}
  mathChangedEvent:
    m_PersistentCalls:
      m_Calls: []
  spheresScale: 1
  spheresColor: {r: 1, g: 1, b: 1, a: 1}
  spheresCount: 100
--- !u!114 &6018586254048828756
MonoBehaviour:
  m_ObjectHideFlags: 0
  m_CorrespondingSourceObject: {fileID: 0}
  m_PrefabInstance: {fileID: 0}
  m_PrefabAsset: {fileID: 0}
  m_GameObject: {fileID: 6513325920980087849}
  m_Enabled: 1
  m_EditorHideFlags: 0
  m_Script: {fileID: 11500000, guid: 8a69af748a081a14dbc7aa333bece5af, type: 3}
  m_Name: 
  m_EditorClassIdentifier: 
  showHandles: 1
  hidden: 0
  parent: {fileID: 2334498985920580780}
  ccName: 
  splitMode: 0
  partsTotal: 30
  partsPerSection: 30
  doNotOptimizeStraightLines: 0
  useLocal: 0
  spheresScale: 1
  spheresColor: {r: 1, g: 1, b: 1, a: 1}
  spheresCount: 100
  updateAtStart: 0
--- !u!114 &2781298051935156772
MonoBehaviour:
  m_ObjectHideFlags: 0
  m_CorrespondingSourceObject: {fileID: 0}
  m_PrefabInstance: {fileID: 0}
  m_PrefabAsset: {fileID: 0}
  m_GameObject: {fileID: 6513325920980087849}
  m_Enabled: 1
  m_EditorHideFlags: 0
  m_Script: {fileID: 11500000, guid: 924df4c68ad59e943b47b75f2323f73a, type: 3}
  m_Name: 
  m_EditorClassIdentifier: 
  showHandles: 1
  hidden: 0
  parent: {fileID: 2334498985920580780}
  ccName: 
  distance: 14.046547
  handlesScale: 1
  handlesColor: {r: 1, g: 1, b: 1, a: 1}
--- !u!114 &275218227631271350
MonoBehaviour:
  m_ObjectHideFlags: 0
  m_CorrespondingSourceObject: {fileID: 0}
  m_PrefabInstance: {fileID: 0}
  m_PrefabAsset: {fileID: 0}
  m_GameObject: {fileID: 6513325920980087849}
  m_Enabled: 1
  m_EditorHideFlags: 0
  m_Script: {fileID: 11500000, guid: 9d916ef28168e544d9dc5bb790f67ba0, type: 3}
  m_Name: 
  m_EditorClassIdentifier: 
  showHandles: 1
  hidden: 0
  parent: {fileID: 2781298051935156772}
  ccName: 
  objectToManipulate: {fileID: 680143258409308635}
